EESchema Schematic File Version 5
EELAYER 30 0
EELAYER END
$Descr A4 11693 8268
encoding utf-8
Sheet 10 10
Title ""
Date ""
Rev ""
Comp ""
Comment1 ""
Comment2 ""
Comment3 ""
Comment4 ""
Comment5 ""
Comment6 ""
Comment7 ""
Comment8 ""
Comment9 ""
$EndDescr
$Comp
L SamacSys_Parts:24CW1280T-I_OT U3
U 1 1 5E2E004C
P 3530 3660
F 0 "U3" H 4030 3925 59  0000 C CIB
F 1 "24CW1280T-I_OT" H 4030 3834 39  0000 C CIB
F 2 "SamacSys_Parts:SOT95P280X145-5N" H 4380 3760 39  0001 C CIB
F 3 "https://componentsearchengine.com/Datasheets/1/24CW1280T-I_OT.pdf" H 4380 3660 39  0001 C CIB
F 4 "24CW1280T-I/OT" H 3530 3660 39  0001 C CIB "REF"
F 5 "579-24CW1280T-I/OT" H 3530 3660 39  0001 C CIB "MOUSER"
F 6 "24CW1280T-I/OT" H 3530 3660 39  0001 C CIB "LCSC"
	1    3530 3660
	1    0    0    -1  
$EndComp
$Comp
L power:GND #PWR016
U 1 1 5E2E493A
P 3370 3760
F 0 "#PWR016" H 3370 3510 59  0001 C CIB
F 1 "GND" V 3370 3580 39  0000 C CIB
F 2 "" H 3370 3760 39  0001 C CIB
F 3 "" H 3370 3760 39  0001 C CIB
	1    3370 3760
	0    1    1    0   
$EndComp
Connection ~ 3060 3660
Connection ~ 2940 3230
Connection ~ 4940 3660
Wire Wire Line
	2830 3510 2830 3860
Wire Wire Line
	3530 3760 3370 3760
Wire Wire Line
	3060 3230 3060 3310
Wire Wire Line
	2830 3230 2830 3310
Wire Wire Line
	2830 3230 2940 3230
Wire Wire Line
	4530 3660 4940 3660
Wire Wire Line
	3530 3660 3060 3660
Wire Wire Line
	3530 3860 2830 3860
Wire Wire Line
	4940 3790 4940 3660
Wire Wire Line
	2940 3110 2940 3230
Wire Wire Line
	4940 3990 4940 4090
Wire Wire Line
	3060 3510 3060 3660
Wire Wire Line
	4940 3110 4940 3660
Wire Wire Line
	2940 3230 3060 3230
$Comp
L device:R_Small R3
U 1 1 5E2EF758
P 2830 3410
F 0 "R3" H 2935 3410 59  0000 C CIB
F 1 "10k" V 2830 3415 39  0000 C CIB
F 2 "Resistor_SMD:R_0603_1608Metric" H 2830 3410 39  0001 C CIB
F 3 "~" H 2830 3410 39  0001 C CIB
	1    2830 3410
	1    0    0    -1  
$EndComp
$Comp
L power:GND #PWR018
U 1 1 5E2E3469
P 4940 4090
F 0 "#PWR018" H 4940 3840 59  0001 C CIB
F 1 "GND" H 4940 3930 39  0000 C CIB
F 2 "" H 4940 4090 39  0001 C CIB
F 3 "" H 4940 4090 39  0001 C CIB
	1    4940 4090
	1    0    0    -1  
$EndComp
$Comp
L power:+3V3 #PWR015
U 1 1 5EC3867D
P 2940 3110
F 0 "#PWR015" H 2940 2960 59  0001 C CIB
F 1 "+3V3" H 2940 3270 39  0000 C CIB
F 2 "" H 2940 3110 39  0001 C CIB
F 3 "" H 2940 3110 39  0001 C CIB
	1    2940 3110
	1    0    0    -1  
$EndComp
$Comp
L device:C_Small C5
U 1 1 5E2E3CF6
P 4940 3890
F 0 "C5" H 5050 3970 59  0000 C CIB
F 1 "100nF" H 5060 3815 39  0000 C CIB
F 2 "Capacitor_SMD:C_0603_1608Metric" H 4940 3890 39  0001 C CIB
F 3 "~" H 4940 3890 39  0001 C CIB
F 4 "MC0402B104K160CT" H 240 190 39  0001 C CIB "Manufacture Ref"
F 5 "https://fr.farnell.com/multicomp/mc0402b104k160ct/condensateur-0-1-f-16v-10-x7r/dp/1758896" H 240 190 39  0001 C CIB "Distributor"
	1    4940 3890
	1    0    0    -1  
$EndComp
$Comp
L power:+3V3 #PWR017
U 1 1 5EC3BBEC
P 4940 3110
F 0 "#PWR017" H 4940 2960 59  0001 C CIB
F 1 "+3V3" H 4940 3280 39  0000 C CIB
F 2 "" H 4940 3110 39  0001 C CIB
F 3 "" H 4940 3110 39  0001 C CIB
	1    4940 3110
	1    0    0    -1  
$EndComp
$Comp
L device:R_Small R4
U 1 1 5E2E6DB1
P 3060 3410
F 0 "R4" H 3200 3405 59  0000 C CIB
F 1 "10k" V 3060 3410 39  0000 C CIB
F 2 "Resistor_SMD:R_0603_1608Metric" H 3060 3410 39  0001 C CIB
F 3 "~" H 3060 3410 39  0001 C CIB
	1    3060 3410
	1    0    0    -1  
$EndComp
Text Notes 6320 835  2    118  Italic 24
EEPROM
$Comp
L izi-mcu:STM32F769NIH6 U?
U 8 1 5F5C2394
P 7865 3660
F 0 "U?" H 7865 4105 60  0000 C CNN
F 1 "STM32F769NIH6" H 7865 3998 60  0000 C CNN
F 2 "" H 8765 2460 60  0000 C CNN
F 3 "" H 8765 2460 60  0000 C CNN
F 4 "STM32F769NIH6" H 7865 3891 60  0000 C CNN "Manufacture Ref"
F 5 "https://www.mouser.fr/ProductDetail/STMicroelectronics/STM32F769NIH6?qs=dTJS0cRn7ogA2J674TGvTQ==" H 7915 6510 60  0001 C CNN "Distributor"
	8    7865 3660
	1    0    0    -1  
$EndComp
Entry Wire Line
	9585 3660 9685 3560
Wire Wire Line
	8765 3660 9585 3660
Text Label 8910 3660 0    50   ~ 0
I2C2_SDA
Text Label 6810 3660 2    50   ~ 0
I2C2_SCL
Wire Wire Line
	6345 3660 6965 3660
Entry Wire Line
	6245 3760 6345 3660
Wire Bus Line
	6245 2390 6175 2300
Wire Bus Line
	6175 2300 1735 2300
Wire Bus Line
	1735 2300 1660 2380
Wire Bus Line
	6245 4150 6310 4235
Wire Bus Line
	9630 4235 6310 4235
Wire Bus Line
	9685 4180 9630 4235
Entry Wire Line
	1660 3760 1760 3660
Wire Wire Line
	1760 3660 3060 3660
Text Label 2445 3660 2    50   ~ 0
I2C2_SCL
Entry Wire Line
	1660 3960 1760 3860
Wire Wire Line
	2830 3860 1760 3860
Connection ~ 2830 3860
Text Label 2095 3860 0    50   ~ 0
I2C2_SDA
Wire Bus Line
	9685 3525 9685 4180
Wire Bus Line
	6245 2390 6245 4150
Wire Bus Line
	1660 2380 1660 4025
$EndSCHEMATC
