EESchema Schematic File Version 5
EELAYER 30 0
EELAYER END
$Descr A4 11693 8268
encoding utf-8
Sheet 5 10
Title "izirunf7"
Date "2020-08-31"
Rev "A"
Comp "IZITRON"
Comment1 "www.izitron.com"
Comment2 ""
Comment3 ""
Comment4 ""
Comment5 ""
Comment6 ""
Comment7 ""
Comment8 ""
Comment9 ""
$EndDescr
BusAlias ETH RMII_TXD0 RMII_TXD1
$Comp
L izi-mcu:STM32F769NIH6 U3
U 5 1 5C061FAF
P 9025 3450
F 0 "U3" H 8930 4070 59  0000 L CIB
F 1 "STM32F769NIH6" H 8785 3945 39  0000 L CIB
F 2 "Package_BGA:TFBGA-216_13x13mm_Layout15x15_P0.8mm" H 11275 1900 39  0001 L TIB
F 3 "" H 11275 1900 39  0000 L TIB
F 4 "STM32F769NIH6" H 8785 3880 39  0000 L TIB "Manufacture Ref"
F 5 "https://www.mouser.fr/ProductDetail/STMicroelectronics/STM32F769NIH6?qs=dTJS0cRn7ogA2J674TGvTQ==" H 9075 6300 39  0001 L TIB "Distributor"
	5    9025 3450
	1    0    0    -1  
$EndComp
$Comp
L izi-eth:LAN8742A U5
U 1 1 5C062095
P 3825 3575
F 0 "U5" H 4415 4305 59  0000 L CIB
F 1 "LAN8742A" H 2920 2805 39  0000 L CIB
F 2 "Housings_DFN_QFN:QFN-24-1EP_4x4mm_Pitch0.5mm" H 2925 2275 39  0001 L TIB
F 3 "http://ww1.microchip.com/downloads/en/DeviceDoc/22299B.pdf" H 3325 2275 39  0001 L TIB
	1    3825 3575
	-1   0    0    -1  
$EndComp
Text HLabel 1150 2975 0    50   BiDi ~ 0
TXP
Text HLabel 1150 3075 0    50   BiDi ~ 0
TXN
Text HLabel 1150 3175 0    50   BiDi ~ 0
RXP
Text HLabel 1150 3275 0    50   BiDi ~ 0
RXN
Text HLabel 1150 3625 0    50   Output ~ 0
LED_Y
Text HLabel 1150 3525 0    50   Output ~ 0
LED_G
$Comp
L device:R_Small R21
U 1 1 5C063844
P 2450 3825
F 0 "R21" V 2370 3740 59  0000 L CIB
F 1 "12k1" V 2525 3750 39  0000 L CIB
F 2 "Resistor_SMD:R_0402_1005Metric" H 2450 3825 39  0001 L TIB
F 3 "~" H 2450 3825 39  0001 L TIB
	1    2450 3825
	0    1    1    0   
$EndComp
$Comp
L power:GND #PWR023
U 1 1 5C063954
P 2200 3825
F 0 "#PWR023" H 2200 3575 59  0001 L CIB
F 1 "GND" V 2200 3570 39  0000 L CIB
F 2 "" H 2200 3825 39  0001 L TIB
F 3 "" H 2200 3825 39  0001 L TIB
	1    2200 3825
	0    1    1    0   
$EndComp
Wire Wire Line
	2200 3825 2350 3825
Wire Wire Line
	2550 3825 2775 3825
$Comp
L power:GND #PWR026
U 1 1 5C06407C
P 3825 5175
F 0 "#PWR026" H 3825 4925 59  0001 L CIB
F 1 "GND" H 3765 5010 39  0000 L CIB
F 2 "" H 3825 5175 39  0001 L TIB
F 3 "" H 3825 5175 39  0001 L TIB
	1    3825 5175
	1    0    0    -1  
$EndComp
Wire Wire Line
	3825 4475 3825 5175
$Comp
L power:+3V3 #PWR018
U 1 1 5C0646E1
P 4200 1750
F 0 "#PWR018" H 4200 1600 59  0001 L CIB
F 1 "+3V3" H 4120 1895 39  0000 L CIB
F 2 "" H 4200 1750 39  0001 L TIB
F 3 "" H 4200 1750 39  0001 L TIB
	1    4200 1750
	1    0    0    -1  
$EndComp
$Comp
L device:C_Small C35
U 1 1 5C064A60
P 4200 2100
F 0 "C35" H 4225 2175 59  0000 L CIB
F 1 "100nF" H 4225 2025 39  0000 L CIB
F 2 "Capacitors_SMD:C_0402" H 4200 2100 39  0001 L TIB
F 3 "~" H 4200 2100 39  0001 L TIB
F 4 "MC0402B104K160CT" H 0   0   39  0001 L TIB "Manufacture Ref"
F 5 "https://fr.farnell.com/multicomp/mc0402b104k160ct/condensateur-0-1-f-16v-10-x7r/dp/1758896" H 0   0   39  0001 L TIB "Distributor"
	1    4200 2100
	1    0    0    -1  
$EndComp
$Comp
L device:CP_Small CP1
U 1 1 5C064AF8
P 4650 2100
F 0 "CP1" H 4675 2185 59  0000 L CIB
F 1 "10uF" H 4690 2025 39  0000 L CIB
F 2 "Capacitor_Tantalum_SMD:CP_EIA-1608-08_AVX-J" H 4650 2100 39  0001 L TIB
F 3 "~" H 4650 2100 39  0001 L TIB
F 4 "https://fr.farnell.com/murata/grm21br61c106ke15k/condensateur-10-f-16v-10-x5r-0805/dp/2611940" H 0   0   39  0001 L TIB "Distributor"
F 5 "GRM21BR61C106KE15K" H 0   0   39  0001 L TIB "Manufacture Ref"
	1    4650 2100
	1    0    0    -1  
$EndComp
Wire Wire Line
	4650 2000 4650 1875
Wire Wire Line
	4650 1875 4200 1875
Wire Wire Line
	4200 2000 4200 1875
$Comp
L power:GND #PWR022
U 1 1 5C069790
P 4450 2400
F 0 "#PWR022" H 4450 2150 59  0001 L CIB
F 1 "GND" H 4455 2227 39  0000 L CIB
F 2 "" H 4450 2400 39  0001 L TIB
F 3 "" H 4450 2400 39  0001 L TIB
	1    4450 2400
	1    0    0    -1  
$EndComp
Wire Wire Line
	4200 2200 4200 2350
Wire Wire Line
	4200 2350 4450 2350
Wire Wire Line
	4450 2350 4450 2400
Wire Wire Line
	4650 2200 4650 2350
Wire Wire Line
	4650 2350 4450 2350
Connection ~ 4450 2350
$Comp
L device:C_Small C31
U 1 1 5C06D53F
P 4300 1025
F 0 "C31" V 4355 1085 59  0000 L CIB
F 1 "1uF" V 4250 1085 39  0000 L CIB
F 2 "Capacitors_SMD:C_0603" H 4300 1025 39  0001 L TIB
F 3 "~" H 4300 1025 39  0001 L TIB
F 4 "https://fr.farnell.com/avx/0603yd105kat2a/condensateur-1-f-16v-10-x5r-0603/dp/1327680" H 0   0   39  0001 L TIB "Distributor"
F 5 "603YD105KAT2A" H 0   0   39  0001 L TIB "Manufacture Ref"
	1    4300 1025
	0    1    -1   0   
$EndComp
$Comp
L device:C_Small C32
U 1 1 5C06D7CA
P 4300 1300
F 0 "C32" V 4350 1350 59  0000 L CIB
F 1 "470pF" V 4245 1355 39  0000 L CIB
F 2 "Capacitors_SMD:C_0402" H 4300 1300 39  0001 L TIB
F 3 "~" H 4300 1300 39  0001 L TIB
F 4 "https://fr.farnell.com/multicomp/mc0402b471k250ct/condensateur-470pf-25v-10-x7r/dp/1758907" H 0   0   39  0001 L TIB "Distributor"
F 5 "MC0402B471K250CT" H 0   0   39  0001 L TIB "Manufacture Ref"
	1    4300 1300
	0    1    -1   0   
$EndComp
Wire Wire Line
	4200 1025 3875 1025
Wire Wire Line
	4200 1300 3875 1300
$Comp
L power:GND #PWR017
U 1 1 5C06E4A0
P 4700 1375
F 0 "#PWR017" H 4700 1125 59  0001 L CIB
F 1 "GND" H 4635 1215 39  0000 L CIB
F 2 "" H 4700 1375 39  0001 L TIB
F 3 "" H 4700 1375 39  0001 L TIB
	1    4700 1375
	-1   0    0    -1  
$EndComp
Wire Wire Line
	4400 1025 4700 1025
Wire Wire Line
	4700 1025 4700 1300
Wire Wire Line
	4700 1300 4400 1300
Connection ~ 4700 1300
Wire Wire Line
	4200 1750 4200 1875
Connection ~ 4200 1875
Wire Wire Line
	4200 1875 3975 1875
Wire Wire Line
	3975 1875 3975 2725
Wire Wire Line
	3875 1025 3875 1300
Connection ~ 3875 1300
Wire Wire Line
	3875 1300 3875 2725
Wire Wire Line
	4700 1300 4700 1375
$Comp
L power:+3V3 #PWR016
U 1 1 5C07BDFA
P 3675 950
F 0 "#PWR016" H 3675 800 59  0001 L CIB
F 1 "+3V3" H 3595 1105 39  0000 L CIB
F 2 "" H 3675 950 39  0001 L TIB
F 3 "" H 3675 950 39  0001 L TIB
	1    3675 950 
	1    0    0    -1  
$EndComp
$Comp
L device:L_Small L1
U 1 1 5C07BE63
P 3675 1225
F 0 "L1" H 3710 1225 59  0000 L CIB
F 1 "120" V 3625 1150 39  0000 L CIB
F 2 "Inductors_SMD:L_0603" H 3675 1225 39  0001 L TIB
F 3 "~" H 3675 1225 39  0001 L TIB
F 4 "BLM18PG121SN1D" V 3525 925 39  0000 L TIB "Manufacture Ref"
F 5 "https://www.mouser.fr/ProductDetail/Murata-Electronics/BLM18PG121SN1D?qs=%2fha2pyFaduiel0%2fVgJ%252brEEoob2BEBH6pq4rS7LIvX%2fYqWMiDxMkiVw%3d%3d" H 3675 1225 39  0001 L TIB "Distributor"
	1    3675 1225
	1    0    0    -1  
$EndComp
$Comp
L device:C_Small C33
U 1 1 5C07C1DB
P 3300 1800
F 0 "C33" V 3240 1860 59  0000 L CIB
F 1 "100nF" V 3350 1855 39  0000 L CIB
F 2 "Capacitors_SMD:C_0402" H 3300 1800 39  0001 L TIB
F 3 "~" H 3300 1800 39  0001 L TIB
F 4 "MC0402B104K160CT" H 0   0   39  0001 L TIB "Manufacture Ref"
F 5 "https://fr.farnell.com/multicomp/mc0402b104k160ct/condensateur-0-1-f-16v-10-x7r/dp/1758896" H 0   0   39  0001 L TIB "Distributor"
	1    3300 1800
	0    1    1    0   
$EndComp
$Comp
L device:C_Small C34
U 1 1 5C07C353
P 3300 2025
F 0 "C34" V 3230 2075 59  0000 L CIB
F 1 "100nF" V 3355 2085 39  0000 L CIB
F 2 "Capacitors_SMD:C_0402" H 3300 2025 39  0001 L TIB
F 3 "~" H 3300 2025 39  0001 L TIB
F 4 "MC0402B104K160CT" H 0   0   39  0001 L TIB "Manufacture Ref"
F 5 "https://fr.farnell.com/multicomp/mc0402b104k160ct/condensateur-0-1-f-16v-10-x7r/dp/1758896" H 0   0   39  0001 L TIB "Distributor"
	1    3300 2025
	0    1    1    0   
$EndComp
$Comp
L device:CP_Small CP2
U 1 1 5C07C385
P 3300 2275
F 0 "CP2" V 3225 2365 59  0000 L CIB
F 1 "10uF" V 3350 2375 39  0000 L CIB
F 2 "Capacitor_Tantalum_SMD:CP_EIA-1608-08_AVX-J" H 3300 2275 39  0001 L TIB
F 3 "~" H 3300 2275 39  0001 L TIB
F 4 "https://fr.farnell.com/murata/grm21br61c106ke15k/condensateur-10-f-16v-10-x5r-0805/dp/2611940" H 0   0   39  0001 L TIB "Distributor"
F 5 "GRM21BR61C106KE15K" H 0   0   39  0001 L TIB "Manufacture Ref"
	1    3300 2275
	0    1    1    0   
$EndComp
Wire Wire Line
	3675 950  3675 1125
Wire Wire Line
	3775 2725 3775 2600
Wire Wire Line
	3775 2600 3675 2600
Connection ~ 3675 2600
Wire Wire Line
	3675 2600 3675 2725
Wire Wire Line
	3400 2275 3675 2275
Connection ~ 3675 2275
Wire Wire Line
	3675 2275 3675 2600
Wire Wire Line
	3400 2025 3675 2025
Connection ~ 3675 2025
Wire Wire Line
	3675 2025 3675 2275
Wire Wire Line
	3400 1800 3675 1800
Connection ~ 3675 1800
Wire Wire Line
	3675 1800 3675 2025
$Comp
L power:GND #PWR021
U 1 1 5C080B06
P 3025 2400
F 0 "#PWR021" H 3025 2150 59  0001 L CIB
F 1 "GND" H 3030 2227 39  0000 L CIB
F 2 "" H 3025 2400 39  0001 L TIB
F 3 "" H 3025 2400 39  0001 L TIB
	1    3025 2400
	1    0    0    -1  
$EndComp
Wire Wire Line
	3025 1800 3025 2025
Wire Wire Line
	3200 2025 3025 2025
Connection ~ 3025 2025
Wire Wire Line
	3025 2025 3025 2275
Wire Wire Line
	3200 2275 3025 2275
Connection ~ 3025 2275
Wire Wire Line
	3025 2275 3025 2400
Wire Wire Line
	3675 1325 3675 1575
$Comp
L izirunf7-rescue:Crystal_GND2_Small-device-linyboard-rescue Y1
U 1 1 5C091ED8
P 2275 4375
AR Path="/5C091ED8" Ref="Y1"  Part="1" 
AR Path="/5C061F84/5C091ED8" Ref="Y1"  Part="1" 
F 0 "Y1" H 2220 4560 59  0000 L CIB
F 1 "25Mhz" H 2180 4480 39  0000 L CIB
F 2 "MyFootPrint:OSC_4P_2x1_6" H 2275 4375 39  0001 L TIB
F 3 "~" H 2275 4375 39  0001 L TIB
F 4 "XRCGB25M000F3G00R0" H 2275 4200 39  0001 L TIB "Manufacture Ref"
F 5 "https://www.mouser.fr/ProductDetail/Murata-Electronics/XRCGB25M000F3G00R0?qs=sGAEpiMZZMsBj6bBr9Q9aUR2LHkDqBwHstOVAfCKDLA%3d" H 2275 4375 39  0001 L TIB "Distributor"
	1    2275 4375
	1    0    0    -1  
$EndComp
NoConn ~ 2275 4500
$Comp
L device:C_Small C38
U 1 1 5C097A6F
P 2050 4825
F 0 "C38" H 2075 4900 59  0000 L CIB
F 1 "6pF" H 2075 4750 39  0000 L CIB
F 2 "Capacitors_SMD:C_0402" H 2050 4825 39  0001 L TIB
F 3 "~" H 2050 4825 39  0001 L TIB
F 4 "https://fr.farnell.com/multicomp/mc0402n6r0d500ct/condensateur-6pf-50v-c0g-np0-0402/dp/1758936" H 0   0   39  0001 L TIB "Distributor"
F 5 "MC0402N6R0D500CT" H 0   0   39  0001 L TIB "Manufacture Ref"
	1    2050 4825
	1    0    0    -1  
$EndComp
$Comp
L device:C_Small C39
U 1 1 5C09A738
P 2500 4825
F 0 "C39" H 2525 4900 59  0000 L CIB
F 1 "6pF" H 2525 4750 39  0000 L CIB
F 2 "Capacitors_SMD:C_0402" H 2500 4825 39  0001 L TIB
F 3 "~" H 2500 4825 39  0001 L TIB
F 4 "https://fr.farnell.com/multicomp/mc0402n6r0d500ct/condensateur-6pf-50v-c0g-np0-0402/dp/1758936" H 0   0   39  0001 L TIB "Distributor"
F 5 "MC0402N6R0D500CT" H 0   0   39  0001 L TIB "Manufacture Ref"
	1    2500 4825
	1    0    0    -1  
$EndComp
$Comp
L power:GND #PWR025
U 1 1 5C09A77A
P 2250 5175
F 0 "#PWR025" H 2250 4925 59  0001 L CIB
F 1 "GND" H 2185 5005 39  0000 L CIB
F 2 "" H 2250 5175 39  0001 L TIB
F 3 "" H 2250 5175 39  0001 L TIB
	1    2250 5175
	1    0    0    -1  
$EndComp
Wire Wire Line
	2050 4925 2050 5175
Wire Wire Line
	2050 5175 2250 5175
Wire Wire Line
	2250 5175 2500 5175
Wire Wire Line
	2500 5175 2500 4925
Connection ~ 2250 5175
Wire Wire Line
	2050 4725 2050 4375
Wire Wire Line
	2050 4375 2175 4375
Wire Wire Line
	2375 4375 2500 4375
Wire Wire Line
	2500 4375 2500 4725
Wire Wire Line
	2500 4375 2500 4175
Wire Wire Line
	2500 4175 2775 4175
Connection ~ 2500 4375
Wire Wire Line
	2050 4375 2050 4025
Wire Wire Line
	2050 4025 2775 4025
Connection ~ 2050 4375
Entry Wire Line
	6825 2975 6925 3075
Entry Wire Line
	6825 3075 6925 3175
Entry Wire Line
	6825 3175 6925 3275
Entry Wire Line
	6825 3275 6925 3375
Entry Wire Line
	6825 3375 6925 3475
Entry Wire Line
	6825 3475 6925 3575
Entry Wire Line
	6825 3575 6925 3675
Entry Wire Line
	6825 3675 6925 3775
Entry Wire Line
	6825 3775 6925 3875
Entry Wire Line
	6825 4175 6925 4275
Wire Bus Line
	7000 4750 7400 4750
Wire Bus Line
	7550 2425 10575 2425
Text Label 6400 2975 0    50   ~ 0
RMII_TXD0
Text Label 6400 3075 0    50   ~ 0
RMII_TXD1
Text Label 6400 3175 0    50   ~ 0
RMII_TXEN
Text Label 6400 3275 0    50   ~ 0
RMII_RXD0
Text Label 6400 3375 0    50   ~ 0
RMII_RXD1
Text Label 6400 3475 0    50   ~ 0
RMII_RXER
Text Label 6400 3575 0    50   ~ 0
RMII_CRS_DV
Text Label 6400 3675 0    50   ~ 0
RMII_MDIO
Text Label 6400 3775 0    50   ~ 0
RMII_MDC
Text HLabel 5025 4025 2    50   Input ~ 0
NRST
Wire Wire Line
	5025 4025 4925 4025
Entry Wire Line
	7475 3300 7575 3200
Entry Wire Line
	7475 3400 7575 3300
Entry Wire Line
	7475 3500 7575 3400
Entry Wire Line
	7475 3650 7575 3550
Entry Wire Line
	7475 3750 7575 3650
Entry Wire Line
	7475 3850 7575 3750
Entry Wire Line
	10550 3200 10650 3300
Entry Wire Line
	10550 3400 10650 3500
Entry Wire Line
	10550 3550 10650 3650
Entry Wire Line
	10550 3750 10650 3850
Wire Wire Line
	9975 3750 10550 3750
Wire Wire Line
	9975 3550 10550 3550
Wire Wire Line
	9975 3400 10550 3400
Wire Wire Line
	10550 3200 9975 3200
Wire Wire Line
	7575 3200 8075 3200
Wire Wire Line
	7575 3300 8075 3300
Wire Wire Line
	8075 3400 7575 3400
Wire Wire Line
	7575 3550 8075 3550
Wire Wire Line
	8075 3650 7575 3650
Wire Wire Line
	7575 3750 8075 3750
Text Label 7625 3300 0    50   ~ 0
RMII_TXD0
Text Label 7625 3200 0    50   ~ 0
RMII_TXEN
Text Label 7625 3400 0    50   ~ 0
RMII_TXD1
Text Label 7625 3550 0    50   ~ 0
RMII_RXER
Text Label 7625 3650 0    50   ~ 0
RMII_RXD0
Text Label 7625 3750 0    50   ~ 0
RMII_RXD1
Text Label 10000 3200 0    50   ~ 0
RMII_CRS_DV
Text Label 10000 3400 0    50   ~ 0
RMII_MDIO
Text Label 10000 3550 0    50   ~ 0
RMII_MDC
Text Label 6400 4175 0    50   ~ 0
RMII_REFCLK
Text Label 10000 3750 0    50   ~ 0
RMII_REFCLK
Wire Bus Line
	6925 4675 7000 4750
Wire Bus Line
	7475 4675 7400 4750
Wire Bus Line
	7550 2425 7475 2500
Wire Bus Line
	10575 2425 10650 2500
Text Notes 6355 810  2    118  Italic 24
ETHERNET
$Comp
L device:R_Small R17
U 1 1 5C135CAD
P 5900 2500
F 0 "R17" V 5820 2415 59  0000 L CIB
F 1 "10k" V 5900 2450 39  0000 L CIB
F 2 "Resistor_SMD:R_0402_1005Metric" H 5900 2500 39  0001 L TIB
F 3 "~" H 5900 2500 39  0001 L TIB
	1    5900 2500
	1    0    0    -1  
$EndComp
Wire Wire Line
	4925 4175 5900 4175
Wire Wire Line
	4925 3775 6825 3775
Wire Wire Line
	4925 3675 5675 3675
Wire Wire Line
	4925 3475 5475 3475
Wire Wire Line
	4925 3375 5250 3375
Wire Wire Line
	4925 3075 6825 3075
Wire Wire Line
	4925 2975 6825 2975
Wire Wire Line
	5900 2600 5900 4175
Connection ~ 5900 4175
Wire Wire Line
	5900 4175 6825 4175
$Comp
L device:R_Small R16
U 1 1 5C1598AC
P 5675 2500
F 0 "R16" V 5585 2410 59  0000 L CIB
F 1 "1k5" V 5675 2445 39  0000 L CIB
F 2 "Resistor_SMD:R_0402_1005Metric" H 5675 2500 39  0001 L TIB
F 3 "~" H 5675 2500 39  0001 L TIB
	1    5675 2500
	1    0    0    -1  
$EndComp
Wire Wire Line
	5675 2600 5675 3675
Connection ~ 5675 3675
Wire Wire Line
	5675 3675 6825 3675
$Comp
L device:R_Small R20
U 1 1 5C15CCB7
P 6100 3575
F 0 "R20" V 6150 3675 59  0000 L CIB
F 1 "33R" V 6100 3500 39  0000 L CIB
F 2 "Resistor_SMD:R_0402_1005Metric" H 6100 3575 39  0001 L TIB
F 3 "~" H 6100 3575 39  0001 L TIB
	1    6100 3575
	0    1    1    0   
$EndComp
Wire Wire Line
	6200 3575 6825 3575
Wire Wire Line
	5025 2600 5025 3575
Wire Wire Line
	4925 3575 5025 3575
Connection ~ 5025 3575
Wire Wire Line
	5025 3575 6000 3575
$Comp
L device:R_Small R24
U 1 1 5C170858
P 5475 4600
F 0 "R24" V 5375 4515 59  0000 L CIB
F 1 "10k" V 5475 4550 39  0000 L CIB
F 2 "Resistor_SMD:R_0402_1005Metric" H 5475 4600 39  0001 L TIB
F 3 "~" H 5475 4600 39  0001 L TIB
	1    5475 4600
	1    0    0    -1  
$EndComp
$Comp
L power:GND #PWR027
U 1 1 5C170A05
P 5475 5175
F 0 "#PWR027" H 5475 4925 59  0001 L CIB
F 1 "GND" H 5415 5000 39  0000 L CIB
F 2 "" H 5475 5175 39  0001 L TIB
F 3 "" H 5475 5175 39  0001 L TIB
	1    5475 5175
	1    0    0    -1  
$EndComp
Wire Wire Line
	5475 4700 5475 5175
Wire Wire Line
	5475 4500 5475 3475
Connection ~ 5475 3475
Wire Wire Line
	5475 3475 6825 3475
$Comp
L device:R_Small R14
U 1 1 5C17AC42
P 5250 2500
F 0 "R14" V 5155 2415 59  0000 L CIB
F 1 "10k" V 5250 2445 39  0000 L CIB
F 2 "Resistor_SMD:R_0402_1005Metric" H 5250 2500 39  0001 L TIB
F 3 "~" H 5250 2500 39  0001 L TIB
	1    5250 2500
	1    0    0    -1  
$EndComp
Wire Wire Line
	5250 2600 5250 3375
$Comp
L device:R_Small R19
U 1 1 5C185087
P 6100 3375
F 0 "R19" V 6150 3475 59  0000 L CIB
F 1 "33R" V 6100 3300 39  0000 L CIB
F 2 "Resistor_SMD:R_0402_1005Metric" H 6100 3375 39  0001 L TIB
F 3 "~" H 6100 3375 39  0001 L TIB
	1    6100 3375
	0    1    1    0   
$EndComp
Wire Wire Line
	6000 3375 5250 3375
Connection ~ 5250 3375
$Comp
L device:R_Small R15
U 1 1 5C192F88
P 5450 2500
F 0 "R15" V 5360 2410 59  0000 L CIB
F 1 "10k" V 5450 2450 39  0000 L CIB
F 2 "Resistor_SMD:R_0402_1005Metric" H 5450 2500 39  0001 L TIB
F 3 "~" H 5450 2500 39  0001 L TIB
	1    5450 2500
	1    0    0    -1  
$EndComp
$Comp
L device:R_Small R18
U 1 1 5C19DEE6
P 6100 3275
F 0 "R18" V 6150 3375 59  0000 L CIB
F 1 "33R" V 6100 3200 39  0000 L CIB
F 2 "Resistor_SMD:R_0402_1005Metric" H 6100 3275 39  0001 L TIB
F 3 "~" H 6100 3275 39  0001 L TIB
	1    6100 3275
	0    1    1    0   
$EndComp
Wire Wire Line
	6200 3375 6825 3375
Wire Wire Line
	6200 3275 6825 3275
Wire Wire Line
	6000 3275 5450 3275
Wire Wire Line
	5450 2600 5450 3275
Connection ~ 5450 3275
Wire Wire Line
	5450 3275 4925 3275
Wire Wire Line
	4925 3175 6825 3175
$Comp
L power:+3V3 #PWR019
U 1 1 5C1BB646
P 5450 1750
F 0 "#PWR019" H 5450 1600 59  0001 L CIB
F 1 "+3V3" H 5370 1910 39  0000 L CIB
F 2 "" H 5450 1750 39  0001 L TIB
F 3 "" H 5450 1750 39  0001 L TIB
	1    5450 1750
	1    0    0    -1  
$EndComp
Wire Wire Line
	5025 2400 5025 1750
Wire Wire Line
	5025 1750 5250 1750
Wire Wire Line
	5900 2400 5900 1750
Wire Wire Line
	5900 1750 5675 1750
Connection ~ 5450 1750
Wire Wire Line
	5250 2400 5250 1750
Connection ~ 5250 1750
Wire Wire Line
	5250 1750 5450 1750
Wire Wire Line
	5450 2400 5450 1750
Wire Wire Line
	5675 2400 5675 1750
Connection ~ 5675 1750
Wire Wire Line
	5675 1750 5450 1750
$Comp
L power:PWR_FLAG #FLG0105
U 1 1 5C81C376
P 3150 1200
F 0 "#FLG0105" H 3150 1275 59  0001 L CIB
F 1 "PWR_FLAG" H 3150 1374 39  0000 L CIB
F 2 "" H 3150 1200 39  0001 L TIB
F 3 "~" H 3150 1200 39  0001 L TIB
	1    3150 1200
	1    0    0    -1  
$EndComp
Wire Wire Line
	3150 1200 3150 1575
Wire Wire Line
	3150 1575 3675 1575
Connection ~ 3675 1575
Wire Wire Line
	3675 1575 3675 1800
$Comp
L power:PWR_FLAG #FLG0106
U 1 1 5C820BE5
P 3875 800
F 0 "#FLG0106" H 3875 875 59  0001 L CIB
F 1 "PWR_FLAG" H 3730 975 39  0000 L CIB
F 2 "" H 3875 800 39  0001 L TIB
F 3 "~" H 3875 800 39  0001 L TIB
	1    3875 800 
	1    0    0    -1  
$EndComp
Wire Wire Line
	3875 800  3875 1025
Connection ~ 3875 1025
Wire Wire Line
	3200 1800 3025 1800
Text Label 8655 2425 0    50   ~ 0
{brace}ETH}
Wire Wire Line
	1150 3525 2775 3525
Wire Wire Line
	1150 3625 2775 3625
Wire Wire Line
	1150 3275 2775 3275
Wire Wire Line
	1150 3175 2775 3175
Wire Wire Line
	1150 3075 2775 3075
Wire Wire Line
	1150 2975 2775 2975
$Comp
L device:R_Small R13
U 1 1 5C16D207
P 5025 2500
F 0 "R13" V 4930 2410 59  0000 L CIB
F 1 "10k" V 5025 2450 39  0000 L CIB
F 2 "Resistor_SMD:R_0402_1005Metric" H 5025 2500 39  0001 L TIB
F 3 "~" H 5025 2500 39  0001 L TIB
	1    5025 2500
	1    0    0    -1  
$EndComp
Wire Bus Line
	10650 2500 10650 3850
Wire Bus Line
	7475 2500 7475 4675
Wire Bus Line
	6925 3075 6925 4675
$EndSCHEMATC
