EESchema Schematic File Version 5
EELAYER 30 0
EELAYER END
$Descr A4 11693 8268
encoding utf-8
Sheet 3 10
Title "izirunf7"
Date "2020-08-31"
Rev "A"
Comp "IZITRON"
Comment1 "www.izitron.com"
Comment2 ""
Comment3 ""
Comment4 ""
Comment5 ""
Comment6 ""
Comment7 ""
Comment8 ""
Comment9 ""
$EndDescr
$Comp
L izi-mcu:STM32F769NIH6 U3
U 3 1 5D519148
P 8050 3700
F 0 "U3" H 7960 4180 59  0000 L CIB
F 1 "STM32F769NIH6" H 7815 4075 39  0000 L CIB
F 2 "Package_BGA:TFBGA-216_13x13mm_Layout15x15_P0.8mm" H 10300 2150 39  0001 L TIB
F 3 "" H 10300 2150 39  0000 L TIB
F 4 "STM32F769NIH6" H 7815 4030 39  0000 L TIB "Manufacture Ref"
F 5 "https://www.mouser.fr/ProductDetail/STMicroelectronics/STM32F769NIH6?qs=dTJS0cRn7ogA2J674TGvTQ==" H 8100 6550 39  0001 L TIB "Distributor"
	3    8050 3700
	1    0    0    -1  
$EndComp
$Comp
L izi-memory:QSPI_NOR U4
U 1 1 5D51A423
P 3750 3650
F 0 "U4" H 3695 4130 59  0000 L CIB
F 1 "QSPI_NOR" H 3605 4045 39  0000 L CIB
F 2 "SamacSys_Parts:SON127P800X600X80-9N-D" H 3650 3150 39  0001 L TIB
F 3 "" H 3650 3150 39  0000 L TIB
	1    3750 3650
	1    0    0    -1  
$EndComp
$Comp
L device:C_Small C29
U 1 1 5D51A556
P 4700 3700
F 0 "C29" H 4792 3746 59  0000 L CIB
F 1 "100nF" H 4792 3655 39  0000 L CIB
F 2 "Capacitors_SMD:C_0402" H 4700 3700 39  0001 L TIB
F 3 "~" H 4700 3700 39  0001 L TIB
F 4 "MC0402B104K160CT" H 0   0   39  0001 L TIB "Manufacture Ref"
F 5 "https://fr.farnell.com/multicomp/mc0402b104k160ct/condensateur-0-1-f-16v-10-x7r/dp/1758896" H 0   0   39  0001 L TIB "Distributor"
	1    4700 3700
	1    0    0    -1  
$EndComp
$Comp
L device:R_Small R1
U 1 1 5D51A5FB
P 2950 3150
F 0 "R1" H 3000 3150 59  0000 L CIB
F 1 "10k" V 2950 3095 39  0000 L CIB
F 2 "Resistor_SMD:R_0402_1005Metric" H 2950 3150 39  0001 L TIB
F 3 "~" H 2950 3150 39  0001 L TIB
	1    2950 3150
	1    0    0    -1  
$EndComp
$Comp
L power:+3V3 #PWR08
U 1 1 5D51A6A3
P 4700 2900
F 0 "#PWR08" H 4700 2750 59  0001 L CIB
F 1 "+3V3" H 4620 3050 39  0000 L CIB
F 2 "" H 4700 2900 39  0001 L TIB
F 3 "" H 4700 2900 39  0001 L TIB
	1    4700 2900
	1    0    0    -1  
$EndComp
Wire Wire Line
	4700 2900 4700 3400
$Comp
L power:GND #PWR09
U 1 1 5D51A6DE
P 4700 4350
F 0 "#PWR09" H 4700 4100 59  0001 L CIB
F 1 "GND" H 4705 4177 39  0000 L CIB
F 2 "" H 4700 4350 39  0001 L TIB
F 3 "" H 4700 4350 39  0001 L TIB
	1    4700 4350
	1    0    0    -1  
$EndComp
Wire Wire Line
	4700 3800 4700 4000
Wire Wire Line
	4300 4000 4700 4000
Connection ~ 4700 4000
Wire Wire Line
	4700 4000 4700 4350
Wire Wire Line
	4300 3400 4700 3400
Connection ~ 4700 3400
Wire Wire Line
	4700 3400 4700 3600
$Comp
L power:+3V3 #PWR07
U 1 1 5D51A740
P 2950 2900
F 0 "#PWR07" H 2950 2750 59  0001 L CIB
F 1 "+3V3" H 2870 3055 39  0000 L CIB
F 2 "" H 2950 2900 39  0001 L TIB
F 3 "" H 2950 2900 39  0001 L TIB
	1    2950 2900
	1    0    0    -1  
$EndComp
Wire Wire Line
	2950 2900 2950 3050
Wire Wire Line
	2950 3250 2950 3400
Wire Wire Line
	2950 3400 3200 3400
Wire Bus Line
	1900 2350 6350 2350
Wire Bus Line
	6450 4400 9600 4400
Entry Wire Line
	1850 3400 1950 3500
Entry Wire Line
	1850 3300 1950 3400
Entry Wire Line
	1850 3600 1950 3700
Entry Wire Line
	1850 3700 1950 3800
Entry Wire Line
	1850 3800 1950 3900
Entry Wire Line
	1850 3900 1950 4000
Wire Wire Line
	1950 4000 3200 4000
Wire Wire Line
	1950 3900 3200 3900
Wire Wire Line
	3200 3800 1950 3800
Wire Wire Line
	1950 3700 3200 3700
Wire Wire Line
	1950 3500 3200 3500
Wire Wire Line
	1950 3400 2950 3400
Connection ~ 2950 3400
Entry Wire Line
	6400 3450 6500 3550
Entry Wire Line
	6400 3750 6500 3850
Entry Wire Line
	9550 3550 9650 3450
Entry Wire Line
	9550 3650 9650 3550
Entry Wire Line
	9550 3750 9650 3650
Entry Wire Line
	9550 3850 9650 3750
Wire Wire Line
	8950 3550 9550 3550
Wire Wire Line
	8950 3650 9550 3650
Wire Wire Line
	8950 3750 9550 3750
Wire Wire Line
	8950 3850 9550 3850
Wire Wire Line
	7150 3850 6500 3850
Wire Wire Line
	7150 3550 6500 3550
Wire Bus Line
	1900 2350 1850 2400
Text Label 6600 3550 0    50   ~ 0
QSPI_CLK
Text Label 2050 3500 0    50   ~ 0
QSPI_CLK
Text Label 2050 3400 0    50   ~ 0
QSPI_CS
Text Label 6600 3850 0    50   ~ 0
QSPI_CS
Text Label 9050 3550 0    50   ~ 0
QSPI_D0
Text Label 9050 3650 0    50   ~ 0
QSPI_D1
Text Label 9050 3750 0    50   ~ 0
QSPI_D2
Text Label 9050 3850 0    50   ~ 0
QSPI_D3
Text Label 2050 3700 0    50   ~ 0
QSPI_D0
Text Label 2050 3800 0    50   ~ 0
QSPI_D1
Text Label 2050 3900 0    50   ~ 0
QSPI_D2
Text Label 2050 4000 0    50   ~ 0
QSPI_D3
Wire Bus Line
	6350 2350 6400 2400
Wire Bus Line
	6400 4350 6450 4400
Wire Bus Line
	9650 4350 9600 4400
Text Notes 6580 845  2    118  Italic 24
QSPI NOR FLASH
Wire Bus Line
	6400 2400 6400 4350
Wire Bus Line
	9650 3450 9650 4350
Wire Bus Line
	1850 2400 1850 3900
$EndSCHEMATC
