(kicad_sch (version 20201015) (generator eeschema)

  (paper "A4")

  (title_block
    (title "izirunf7")
    (date "2021-01-10")
    (rev "A")
    (company "IZITRON")
    (comment 1 "www.izitron.com")
  )

  (lib_symbols
  )

  (junction (at 90.17 173.355) (diameter 1.016) (color 0 0 0 0))

  (wire (pts (xy 74.93 23.495) (xy 109.855 23.495))
    (stroke (width 0) (type solid) (color 0 0 0 0))
  )
  (wire (pts (xy 74.93 27.305) (xy 109.855 27.305))
    (stroke (width 0) (type solid) (color 0 0 0 0))
  )
  (wire (pts (xy 74.93 31.115) (xy 109.855 31.115))
    (stroke (width 0) (type solid) (color 0 0 0 0))
  )
  (wire (pts (xy 74.93 34.925) (xy 109.855 34.925))
    (stroke (width 0) (type solid) (color 0 0 0 0))
  )
  (wire (pts (xy 74.93 41.275) (xy 83.185 41.275))
    (stroke (width 0) (type solid) (color 0 0 0 0))
  )
  (wire (pts (xy 74.93 45.72) (xy 136.525 45.72))
    (stroke (width 0) (type solid) (color 0 0 0 0))
  )
  (wire (pts (xy 74.93 50.8) (xy 109.22 50.8))
    (stroke (width 0) (type solid) (color 0 0 0 0))
  )
  (wire (pts (xy 74.93 52.705) (xy 109.22 52.705))
    (stroke (width 0) (type solid) (color 0 0 0 0))
  )
  (wire (pts (xy 74.93 55.245) (xy 109.22 55.245))
    (stroke (width 0) (type solid) (color 0 0 0 0))
  )
  (wire (pts (xy 74.93 57.15) (xy 109.22 57.15))
    (stroke (width 0) (type solid) (color 0 0 0 0))
  )
  (wire (pts (xy 74.93 59.69) (xy 109.22 59.69))
    (stroke (width 0) (type solid) (color 0 0 0 0))
  )
  (wire (pts (xy 74.93 61.595) (xy 109.22 61.595))
    (stroke (width 0) (type solid) (color 0 0 0 0))
  )
  (wire (pts (xy 74.93 63.5) (xy 109.22 63.5))
    (stroke (width 0) (type solid) (color 0 0 0 0))
  )
  (wire (pts (xy 74.93 65.405) (xy 109.22 65.405))
    (stroke (width 0) (type solid) (color 0 0 0 0))
  )
  (wire (pts (xy 74.93 67.31) (xy 109.22 67.31))
    (stroke (width 0) (type solid) (color 0 0 0 0))
  )
  (wire (pts (xy 74.93 69.215) (xy 109.22 69.215))
    (stroke (width 0) (type solid) (color 0 0 0 0))
  )
  (wire (pts (xy 74.93 71.755) (xy 109.22 71.755))
    (stroke (width 0) (type solid) (color 0 0 0 0))
  )
  (wire (pts (xy 74.93 74.295) (xy 109.22 74.295))
    (stroke (width 0) (type solid) (color 0 0 0 0))
  )
  (wire (pts (xy 74.93 78.105) (xy 109.22 78.105))
    (stroke (width 0) (type solid) (color 0 0 0 0))
  )
  (wire (pts (xy 74.93 80.01) (xy 109.22 80.01))
    (stroke (width 0) (type solid) (color 0 0 0 0))
  )
  (wire (pts (xy 74.93 83.185) (xy 109.22 83.185))
    (stroke (width 0) (type solid) (color 0 0 0 0))
  )
  (wire (pts (xy 74.93 85.09) (xy 109.22 85.09))
    (stroke (width 0) (type solid) (color 0 0 0 0))
  )
  (wire (pts (xy 74.93 86.995) (xy 109.22 86.995))
    (stroke (width 0) (type solid) (color 0 0 0 0))
  )
  (wire (pts (xy 74.93 88.9) (xy 109.22 88.9))
    (stroke (width 0) (type solid) (color 0 0 0 0))
  )
  (wire (pts (xy 74.93 90.805) (xy 109.22 90.805))
    (stroke (width 0) (type solid) (color 0 0 0 0))
  )
  (wire (pts (xy 74.93 92.71) (xy 109.22 92.71))
    (stroke (width 0) (type solid) (color 0 0 0 0))
  )
  (wire (pts (xy 74.93 95.25) (xy 109.22 95.25))
    (stroke (width 0) (type solid) (color 0 0 0 0))
  )
  (wire (pts (xy 74.93 97.155) (xy 109.22 97.155))
    (stroke (width 0) (type solid) (color 0 0 0 0))
  )
  (wire (pts (xy 74.93 99.06) (xy 109.22 99.06))
    (stroke (width 0) (type solid) (color 0 0 0 0))
  )
  (wire (pts (xy 74.93 100.965) (xy 109.22 100.965))
    (stroke (width 0) (type solid) (color 0 0 0 0))
  )
  (wire (pts (xy 74.93 102.87) (xy 109.22 102.87))
    (stroke (width 0) (type solid) (color 0 0 0 0))
  )
  (wire (pts (xy 74.93 104.775) (xy 109.22 104.775))
    (stroke (width 0) (type solid) (color 0 0 0 0))
  )
  (wire (pts (xy 74.93 107.95) (xy 109.22 107.95))
    (stroke (width 0) (type solid) (color 0 0 0 0))
  )
  (wire (pts (xy 74.93 109.855) (xy 109.22 109.855))
    (stroke (width 0) (type solid) (color 0 0 0 0))
  )
  (wire (pts (xy 74.93 111.76) (xy 109.22 111.76))
    (stroke (width 0) (type solid) (color 0 0 0 0))
  )
  (wire (pts (xy 74.93 114.935) (xy 109.22 114.935))
    (stroke (width 0) (type solid) (color 0 0 0 0))
  )
  (wire (pts (xy 74.93 116.84) (xy 109.22 116.84))
    (stroke (width 0) (type solid) (color 0 0 0 0))
  )
  (wire (pts (xy 74.93 118.745) (xy 109.22 118.745))
    (stroke (width 0) (type solid) (color 0 0 0 0))
  )
  (wire (pts (xy 74.93 120.65) (xy 109.22 120.65))
    (stroke (width 0) (type solid) (color 0 0 0 0))
  )
  (wire (pts (xy 74.93 122.555) (xy 109.22 122.555))
    (stroke (width 0) (type solid) (color 0 0 0 0))
  )
  (wire (pts (xy 74.93 124.46) (xy 109.22 124.46))
    (stroke (width 0) (type solid) (color 0 0 0 0))
  )
  (wire (pts (xy 74.93 126.365) (xy 109.22 126.365))
    (stroke (width 0) (type solid) (color 0 0 0 0))
  )
  (wire (pts (xy 74.93 128.27) (xy 109.22 128.27))
    (stroke (width 0) (type solid) (color 0 0 0 0))
  )
  (wire (pts (xy 74.93 130.175) (xy 109.22 130.175))
    (stroke (width 0) (type solid) (color 0 0 0 0))
  )
  (wire (pts (xy 74.93 132.08) (xy 109.22 132.08))
    (stroke (width 0) (type solid) (color 0 0 0 0))
  )
  (wire (pts (xy 74.93 133.985) (xy 109.22 133.985))
    (stroke (width 0) (type solid) (color 0 0 0 0))
  )
  (wire (pts (xy 74.93 135.89) (xy 109.22 135.89))
    (stroke (width 0) (type solid) (color 0 0 0 0))
  )
  (wire (pts (xy 74.93 137.795) (xy 109.22 137.795))
    (stroke (width 0) (type solid) (color 0 0 0 0))
  )
  (wire (pts (xy 74.93 139.7) (xy 109.22 139.7))
    (stroke (width 0) (type solid) (color 0 0 0 0))
  )
  (wire (pts (xy 74.93 141.605) (xy 109.22 141.605))
    (stroke (width 0) (type solid) (color 0 0 0 0))
  )
  (wire (pts (xy 74.93 143.51) (xy 109.22 143.51))
    (stroke (width 0) (type solid) (color 0 0 0 0))
  )
  (wire (pts (xy 74.93 145.415) (xy 109.22 145.415))
    (stroke (width 0) (type solid) (color 0 0 0 0))
  )
  (wire (pts (xy 74.93 147.32) (xy 109.22 147.32))
    (stroke (width 0) (type solid) (color 0 0 0 0))
  )
  (wire (pts (xy 74.93 149.225) (xy 109.22 149.225))
    (stroke (width 0) (type solid) (color 0 0 0 0))
  )
  (wire (pts (xy 74.93 151.13) (xy 109.22 151.13))
    (stroke (width 0) (type solid) (color 0 0 0 0))
  )
  (wire (pts (xy 74.93 153.035) (xy 109.22 153.035))
    (stroke (width 0) (type solid) (color 0 0 0 0))
  )
  (wire (pts (xy 74.93 173.355) (xy 90.17 173.355))
    (stroke (width 0) (type solid) (color 0 0 0 0))
  )
  (wire (pts (xy 74.93 176.53) (xy 109.22 176.53))
    (stroke (width 0) (type solid) (color 0 0 0 0))
  )
  (wire (pts (xy 74.93 179.07) (xy 109.22 179.07))
    (stroke (width 0) (type solid) (color 0 0 0 0))
  )
  (wire (pts (xy 74.93 181.61) (xy 109.22 181.61))
    (stroke (width 0) (type solid) (color 0 0 0 0))
  )
  (wire (pts (xy 74.93 184.15) (xy 109.22 184.15))
    (stroke (width 0) (type solid) (color 0 0 0 0))
  )
  (wire (pts (xy 74.93 187.452) (xy 109.22 187.452))
    (stroke (width 0) (type solid) (color 0 0 0 0))
  )
  (wire (pts (xy 74.93 190.5) (xy 109.22 190.5))
    (stroke (width 0) (type solid) (color 0 0 0 0))
  )
  (wire (pts (xy 81.915 43.18) (xy 74.93 43.18))
    (stroke (width 0) (type solid) (color 0 0 0 0))
  )
  (wire (pts (xy 81.915 44.45) (xy 81.915 43.18))
    (stroke (width 0) (type solid) (color 0 0 0 0))
  )
  (wire (pts (xy 83.185 41.275) (xy 83.185 43.815))
    (stroke (width 0) (type solid) (color 0 0 0 0))
  )
  (wire (pts (xy 83.185 43.815) (xy 143.51 43.815))
    (stroke (width 0) (type solid) (color 0 0 0 0))
  )
  (wire (pts (xy 90.17 156.21) (xy 90.17 173.355))
    (stroke (width 0) (type solid) (color 0 0 0 0))
  )
  (wire (pts (xy 90.17 173.355) (xy 109.22 173.355))
    (stroke (width 0) (type solid) (color 0 0 0 0))
  )
  (wire (pts (xy 92.71 38.735) (xy 74.93 38.735))
    (stroke (width 0) (type solid) (color 0 0 0 0))
  )
  (wire (pts (xy 92.71 42.545) (xy 92.71 38.735))
    (stroke (width 0) (type solid) (color 0 0 0 0))
  )
  (wire (pts (xy 109.22 156.21) (xy 90.17 156.21))
    (stroke (width 0) (type solid) (color 0 0 0 0))
  )
  (wire (pts (xy 136.525 45.72) (xy 136.525 49.53))
    (stroke (width 0) (type solid) (color 0 0 0 0))
  )
  (wire (pts (xy 140.97 44.45) (xy 81.915 44.45))
    (stroke (width 0) (type solid) (color 0 0 0 0))
  )
  (wire (pts (xy 140.97 49.53) (xy 140.97 44.45))
    (stroke (width 0) (type solid) (color 0 0 0 0))
  )
  (wire (pts (xy 143.51 43.815) (xy 143.51 49.53))
    (stroke (width 0) (type solid) (color 0 0 0 0))
  )
  (wire (pts (xy 146.05 42.545) (xy 92.71 42.545))
    (stroke (width 0) (type solid) (color 0 0 0 0))
  )
  (wire (pts (xy 146.05 49.53) (xy 146.05 42.545))
    (stroke (width 0) (type solid) (color 0 0 0 0))
  )

  (sheet (at 26.67 20.32) (size 48.26 172.72)
    (stroke (width 0) (type solid) (color 0 0 0 0))
    (fill (color 0 0 0 0.0000))
    (uuid 00000000-0000-0000-0000-00005c3f5ae0)
    (property "Sheet name" "connector" (id 0) (at 26.67 18.8209 0)
      (effects (font (size 2.9972 2.9972)) (justify left bottom))
    )
    (property "Sheet file" "connector.kicad_sch" (id 1) (at 26.67 193.5485 0)
      (effects (font (size 1.27 1.27)) (justify left top))
    )
    (pin "IO14" bidirectional (at 74.93 141.605 0)
      (effects (font (size 1.27 1.27)) (justify right))
    )
    (pin "IO15" bidirectional (at 74.93 143.51 0)
      (effects (font (size 1.27 1.27)) (justify right))
    )
    (pin "IO16" bidirectional (at 74.93 145.415 0)
      (effects (font (size 1.27 1.27)) (justify right))
    )
    (pin "IO17" bidirectional (at 74.93 147.32 0)
      (effects (font (size 1.27 1.27)) (justify right))
    )
    (pin "IO18" bidirectional (at 74.93 149.225 0)
      (effects (font (size 1.27 1.27)) (justify right))
    )
    (pin "IO19" bidirectional (at 74.93 151.13 0)
      (effects (font (size 1.27 1.27)) (justify right))
    )
    (pin "IO20" bidirectional (at 74.93 153.035 0)
      (effects (font (size 1.27 1.27)) (justify right))
    )
    (pin "IO2" bidirectional (at 74.93 118.745 0)
      (effects (font (size 1.27 1.27)) (justify right))
    )
    (pin "IO3" bidirectional (at 74.93 120.65 0)
      (effects (font (size 1.27 1.27)) (justify right))
    )
    (pin "IO4" bidirectional (at 74.93 122.555 0)
      (effects (font (size 1.27 1.27)) (justify right))
    )
    (pin "IO5" bidirectional (at 74.93 124.46 0)
      (effects (font (size 1.27 1.27)) (justify right))
    )
    (pin "IO6" bidirectional (at 74.93 126.365 0)
      (effects (font (size 1.27 1.27)) (justify right))
    )
    (pin "IO1" bidirectional (at 74.93 116.84 0)
      (effects (font (size 1.27 1.27)) (justify right))
    )
    (pin "IO7" bidirectional (at 74.93 128.27 0)
      (effects (font (size 1.27 1.27)) (justify right))
    )
    (pin "IO8" bidirectional (at 74.93 130.175 0)
      (effects (font (size 1.27 1.27)) (justify right))
    )
    (pin "IO9" bidirectional (at 74.93 132.08 0)
      (effects (font (size 1.27 1.27)) (justify right))
    )
    (pin "IO10" bidirectional (at 74.93 133.985 0)
      (effects (font (size 1.27 1.27)) (justify right))
    )
    (pin "IO11" bidirectional (at 74.93 135.89 0)
      (effects (font (size 1.27 1.27)) (justify right))
    )
    (pin "IO12" bidirectional (at 74.93 137.795 0)
      (effects (font (size 1.27 1.27)) (justify right))
    )
    (pin "IO13" bidirectional (at 74.93 139.7 0)
      (effects (font (size 1.27 1.27)) (justify right))
    )
    (pin "NRST" output (at 74.93 173.355 0)
      (effects (font (size 1.27 1.27)) (justify right))
    )
    (pin "BOOT" input (at 74.93 38.735 0)
      (effects (font (size 1.27 1.27)) (justify right))
    )
    (pin "WKUP" input (at 74.93 45.72 0)
      (effects (font (size 1.27 1.27)) (justify right))
    )
    (pin "CAN_H" passive (at 74.93 71.755 0)
      (effects (font (size 1.27 1.27)) (justify right))
    )
    (pin "CAN_L" passive (at 74.93 74.295 0)
      (effects (font (size 1.27 1.27)) (justify right))
    )
    (pin "USB_DM" bidirectional (at 74.93 23.495 0)
      (effects (font (size 1.27 1.27)) (justify right))
    )
    (pin "USB_DP" bidirectional (at 74.93 27.305 0)
      (effects (font (size 1.27 1.27)) (justify right))
    )
    (pin "SWD_SWCLK" output (at 74.93 43.18 0)
      (effects (font (size 1.27 1.27)) (justify right))
    )
    (pin "SWD_SWDIO" bidirectional (at 74.93 41.275 0)
      (effects (font (size 1.27 1.27)) (justify right))
    )
    (pin "PWM2" input (at 74.93 86.995 0)
      (effects (font (size 1.27 1.27)) (justify right))
    )
    (pin "PWM3" input (at 74.93 88.9 0)
      (effects (font (size 1.27 1.27)) (justify right))
    )
    (pin "PWM4" input (at 74.93 90.805 0)
      (effects (font (size 1.27 1.27)) (justify right))
    )
    (pin "PWM5" input (at 74.93 92.71 0)
      (effects (font (size 1.27 1.27)) (justify right))
    )
    (pin "IO0" bidirectional (at 74.93 114.935 0)
      (effects (font (size 1.27 1.27)) (justify right))
    )
    (pin "PWM0" input (at 74.93 83.185 0)
      (effects (font (size 1.27 1.27)) (justify right))
    )
    (pin "PWM1" input (at 74.93 85.09 0)
      (effects (font (size 1.27 1.27)) (justify right))
    )
    (pin "ADC0" output (at 74.93 78.105 0)
      (effects (font (size 1.27 1.27)) (justify right))
    )
    (pin "ADC1" output (at 74.93 80.01 0)
      (effects (font (size 1.27 1.27)) (justify right))
    )
    (pin "USART1_TX" input (at 74.93 50.8 0)
      (effects (font (size 1.27 1.27)) (justify right))
    )
    (pin "USART1_RX" output (at 74.93 52.705 0)
      (effects (font (size 1.27 1.27)) (justify right))
    )
    (pin "I2C1_SCL" input (at 74.93 57.15 0)
      (effects (font (size 1.27 1.27)) (justify right))
    )
    (pin "I2C1_SDA" bidirectional (at 74.93 55.245 0)
      (effects (font (size 1.27 1.27)) (justify right))
    )
    (pin "SPI1_SCK" input (at 74.93 59.69 0)
      (effects (font (size 1.27 1.27)) (justify right))
    )
    (pin "SPI1_MISO" output (at 74.93 63.5 0)
      (effects (font (size 1.27 1.27)) (justify right))
    )
    (pin "SPI1_MOSI" input (at 74.93 61.595 0)
      (effects (font (size 1.27 1.27)) (justify right))
    )
    (pin "SPI1_CS0" input (at 74.93 65.405 0)
      (effects (font (size 1.27 1.27)) (justify right))
    )
    (pin "SPI1_CS1" input (at 74.93 67.31 0)
      (effects (font (size 1.27 1.27)) (justify right))
    )
    (pin "SPI1_CS2" input (at 74.93 69.215 0)
      (effects (font (size 1.27 1.27)) (justify right))
    )
    (pin "ETH_TXN" bidirectional (at 74.93 179.07 0)
      (effects (font (size 1.27 1.27)) (justify right))
    )
    (pin "ETH_TXP" bidirectional (at 74.93 176.53 0)
      (effects (font (size 1.27 1.27)) (justify right))
    )
    (pin "USB_ID" output (at 74.93 31.115 0)
      (effects (font (size 1.27 1.27)) (justify right))
    )
    (pin "USB_VBUS" input (at 74.93 34.925 0)
      (effects (font (size 1.27 1.27)) (justify right))
    )
    (pin "ETH_RXP" bidirectional (at 74.93 181.61 0)
      (effects (font (size 1.27 1.27)) (justify right))
    )
    (pin "ETH_RXN" bidirectional (at 74.93 184.15 0)
      (effects (font (size 1.27 1.27)) (justify right))
    )
    (pin "ETH_LED_G" bidirectional (at 74.93 187.452 0)
      (effects (font (size 1.27 1.27)) (justify right))
    )
    (pin "ETH_LED_Y" bidirectional (at 74.93 190.5 0)
      (effects (font (size 1.27 1.27)) (justify right))
    )
    (pin "DSI_CKP" bidirectional (at 74.93 95.25 0)
      (effects (font (size 1.27 1.27)) (justify right))
    )
    (pin "DSI_D1P" bidirectional (at 74.93 102.87 0)
      (effects (font (size 1.27 1.27)) (justify right))
    )
    (pin "DSI_D0P" bidirectional (at 74.93 99.06 0)
      (effects (font (size 1.27 1.27)) (justify right))
    )
    (pin "DSI_D0N" bidirectional (at 74.93 100.965 0)
      (effects (font (size 1.27 1.27)) (justify right))
    )
    (pin "DSI_CKN" bidirectional (at 74.93 97.155 0)
      (effects (font (size 1.27 1.27)) (justify right))
    )
    (pin "DSI_D1N" bidirectional (at 74.93 104.775 0)
      (effects (font (size 1.27 1.27)) (justify right))
    )
    (pin "DFSDM1_CKOUT" input (at 74.93 107.95 0)
      (effects (font (size 1.27 1.27)) (justify right))
    )
    (pin "DFSDM1_DATAIN1" output (at 74.93 109.855 0)
      (effects (font (size 1.27 1.27)) (justify right))
    )
    (pin "DFSDM1_DATAIN2" output (at 74.93 111.76 0)
      (effects (font (size 1.27 1.27)) (justify right))
    )
  )

  (sheet (at 193.04 103.759) (size 45.847 14.478)
    (stroke (width 0) (type solid) (color 0 0 0 0))
    (fill (color 0 0 0 0.0000))
    (uuid 00000000-0000-0000-0000-00005f511d62)
    (property "Sheet name" "eeprom" (id 0) (at 193.04 102.2599 0)
      (effects (font (size 2.9972 2.9972)) (justify left bottom))
    )
    (property "Sheet file" "eeprom.kicad_sch" (id 1) (at 193.04 118.7455 0)
      (effects (font (size 1.27 1.27)) (justify left top))
    )
  )

  (sheet (at 109.22 170.18) (size 45.72 22.86)
    (stroke (width 0) (type solid) (color 0 0 0 0))
    (fill (color 0 0 0 0.0000))
    (uuid 00000000-0000-0000-0000-00005c061f84)
    (property "Sheet name" "eth" (id 0) (at 109.22 168.6809 0)
      (effects (font (size 2.9972 2.9972)) (justify left bottom))
    )
    (property "Sheet file" "eth.kicad_sch" (id 1) (at 109.22 193.5485 0)
      (effects (font (size 1.27 1.27)) (justify left top))
    )
    (pin "NRST" input (at 109.22 173.355 180)
      (effects (font (size 1.27 1.27)) (justify left))
    )
    (pin "ETH_RXP_PHY" bidirectional (at 109.22 181.61 180)
      (effects (font (size 1.27 1.27)) (justify left))
    )
    (pin "ETH_RXN_PHY" bidirectional (at 109.22 184.15 180)
      (effects (font (size 1.27 1.27)) (justify left))
    )
    (pin "ETH_TXP_PHY" bidirectional (at 109.22 176.53 180)
      (effects (font (size 1.27 1.27)) (justify left))
    )
    (pin "ETH_TXN_PHY" bidirectional (at 109.22 179.07 180)
      (effects (font (size 1.27 1.27)) (justify left))
    )
    (pin "LED_Y" output (at 109.22 190.5 180)
      (effects (font (size 1.27 1.27)) (justify left))
    )
    (pin "LED_G" output (at 109.22 187.452 180)
      (effects (font (size 1.27 1.27)) (justify left))
    )
  )

  (sheet (at 193.04 79.883) (size 45.847 11.557)
    (stroke (width 0) (type solid) (color 0 0 0 0))
    (fill (color 0 0 0 0.0000))
    (uuid 00000000-0000-0000-0000-00005d50fc43)
    (property "Sheet name" "flash" (id 0) (at 193.04 78.3839 0)
      (effects (font (size 2.9972 2.9972)) (justify left bottom))
    )
    (property "Sheet file" "flash.kicad_sch" (id 1) (at 193.04 91.9485 0)
      (effects (font (size 1.27 1.27)) (justify left top))
    )
  )

  (sheet (at 109.22 49.53) (size 45.72 109.22)
    (stroke (width 0) (type solid) (color 0 0 0 0))
    (fill (color 0 0 0 0.0000))
    (uuid 00000000-0000-0000-0000-00005c0272af)
    (property "Sheet name" "mcu" (id 0) (at 147.32 48.6659 0)
      (effects (font (size 2.9972 2.9972)) (justify left bottom))
    )
    (property "Sheet file" "mcu.kicad_sch" (id 1) (at 109.22 159.2585 0)
      (effects (font (size 1.27 1.27)) (justify left top))
    )
    (pin "PB0_TIM3_CH3" output (at 109.22 86.995 180)
      (effects (font (size 1.27 1.27)) (justify left))
    )
    (pin "PB1_TIM3_CH4" output (at 109.22 88.9 180)
      (effects (font (size 1.27 1.27)) (justify left))
    )
    (pin "PE5_TIM9_CH1" output (at 109.22 90.805 180)
      (effects (font (size 1.27 1.27)) (justify left))
    )
    (pin "PE6_TIM9_CH2" output (at 109.22 92.71 180)
      (effects (font (size 1.27 1.27)) (justify left))
    )
    (pin "PD3_DFSDM1_CLKOUT" output (at 109.22 107.95 180)
      (effects (font (size 1.27 1.27)) (justify left))
    )
    (pin "PE4_DFSDM1_DATA3" input (at 109.22 111.76 180)
      (effects (font (size 1.27 1.27)) (justify left))
    )
    (pin "PD6_DFSDM1_DATA1" input (at 109.22 109.855 180)
      (effects (font (size 1.27 1.27)) (justify left))
    )
    (pin "PD12_IO0" bidirectional (at 109.22 114.935 180)
      (effects (font (size 1.27 1.27)) (justify left))
    )
    (pin "PJ1_IO4" bidirectional (at 109.22 122.555 180)
      (effects (font (size 1.27 1.27)) (justify left))
    )
    (pin "PJ3_IO6" bidirectional (at 109.22 126.365 180)
      (effects (font (size 1.27 1.27)) (justify left))
    )
    (pin "PJ2_IO5" bidirectional (at 109.22 124.46 180)
      (effects (font (size 1.27 1.27)) (justify left))
    )
    (pin "PA15_IO2" bidirectional (at 109.22 118.745 180)
      (effects (font (size 1.27 1.27)) (justify left))
    )
    (pin "PA8_IO3" bidirectional (at 109.22 120.65 180)
      (effects (font (size 1.27 1.27)) (justify left))
    )
    (pin "PI11_IO8" bidirectional (at 109.22 130.175 180)
      (effects (font (size 1.27 1.27)) (justify left))
    )
    (pin "PI12_IO9" bidirectional (at 109.22 132.08 180)
      (effects (font (size 1.27 1.27)) (justify left))
    )
    (pin "PD13_IO1" bidirectional (at 109.22 116.84 180)
      (effects (font (size 1.27 1.27)) (justify left))
    )
    (pin "PJ4_IO7" bidirectional (at 109.22 128.27 180)
      (effects (font (size 1.27 1.27)) (justify left))
    )
    (pin "PH3_IO14" bidirectional (at 109.22 141.605 180)
      (effects (font (size 1.27 1.27)) (justify left))
    )
    (pin "PI13_IO10" bidirectional (at 109.22 133.985 180)
      (effects (font (size 1.27 1.27)) (justify left))
    )
    (pin "PI14_IO11" bidirectional (at 109.22 135.89 180)
      (effects (font (size 1.27 1.27)) (justify left))
    )
    (pin "PI15_IO12" bidirectional (at 109.22 137.795 180)
      (effects (font (size 1.27 1.27)) (justify left))
    )
    (pin "PH2_IO13" bidirectional (at 109.22 139.7 180)
      (effects (font (size 1.27 1.27)) (justify left))
    )
    (pin "PA14_SWCLK" output (at 140.97 49.53 90)
      (effects (font (size 1.27 1.27)) (justify right))
    )
    (pin "PA13_SWDIO" output (at 143.51 49.53 90)
      (effects (font (size 1.27 1.27)) (justify right))
    )
    (pin "BOOT" input (at 146.05 49.53 90)
      (effects (font (size 1.27 1.27)) (justify right))
    )
    (pin "PH4_IO15" bidirectional (at 109.22 143.51 180)
      (effects (font (size 1.27 1.27)) (justify left))
    )
    (pin "PK3_IO16" bidirectional (at 109.22 145.415 180)
      (effects (font (size 1.27 1.27)) (justify left))
    )
    (pin "PK4_IO17" bidirectional (at 109.22 147.32 180)
      (effects (font (size 1.27 1.27)) (justify left))
    )
    (pin "PK5_IO18" bidirectional (at 109.22 149.225 180)
      (effects (font (size 1.27 1.27)) (justify left))
    )
    (pin "PK6_IO19" bidirectional (at 109.22 151.13 180)
      (effects (font (size 1.27 1.27)) (justify left))
    )
    (pin "PK7_IO20" bidirectional (at 109.22 153.035 180)
      (effects (font (size 1.27 1.27)) (justify left))
    )
    (pin "PB4_SPI1_MISO" input (at 109.22 63.5 180)
      (effects (font (size 1.27 1.27)) (justify left))
    )
    (pin "PD7_SPI1_MOSI" output (at 109.22 61.595 180)
      (effects (font (size 1.27 1.27)) (justify left))
    )
    (pin "DSI_D0P" bidirectional (at 109.22 99.06 180)
      (effects (font (size 1.27 1.27)) (justify left))
    )
    (pin "DSI_D0N" bidirectional (at 109.22 100.965 180)
      (effects (font (size 1.27 1.27)) (justify left))
    )
    (pin "DSI_D1P" bidirectional (at 109.22 102.87 180)
      (effects (font (size 1.27 1.27)) (justify left))
    )
    (pin "DSI_D1N" bidirectional (at 109.22 104.775 180)
      (effects (font (size 1.27 1.27)) (justify left))
    )
    (pin "DSI_CKP" bidirectional (at 109.22 95.25 180)
      (effects (font (size 1.27 1.27)) (justify left))
    )
    (pin "DSI_CKN" bidirectional (at 109.22 97.155 180)
      (effects (font (size 1.27 1.27)) (justify left))
    )
    (pin "PJ12_SPI1_CS0" output (at 109.22 65.405 180)
      (effects (font (size 1.27 1.27)) (justify left))
    )
    (pin "PJ12_SPI1_CS1" output (at 109.22 67.31 180)
      (effects (font (size 1.27 1.27)) (justify left))
    )
    (pin "PJ12_SPI1_CS2" output (at 109.22 69.215 180)
      (effects (font (size 1.27 1.27)) (justify left))
    )
    (pin "CAN_H" passive (at 109.22 71.755 180)
      (effects (font (size 1.27 1.27)) (justify left))
    )
    (pin "CAN_L" passive (at 109.22 74.295 180)
      (effects (font (size 1.27 1.27)) (justify left))
    )
    (pin "NRST" input (at 109.22 156.21 180)
      (effects (font (size 1.27 1.27)) (justify left))
    )
    (pin "PA0_WKUP" input (at 136.525 49.53 90)
      (effects (font (size 1.27 1.27)) (justify right))
    )
    (pin "PA9_UART1_TX" output (at 109.22 50.8 180)
      (effects (font (size 1.27 1.27)) (justify left))
    )
    (pin "PA10_UART1_RX" input (at 109.22 52.705 180)
      (effects (font (size 1.27 1.27)) (justify left))
    )
    (pin "PB8_I2C1_SCL" output (at 109.22 57.15 180)
      (effects (font (size 1.27 1.27)) (justify left))
    )
    (pin "PB9_I2C1_SDA" bidirectional (at 109.22 55.245 180)
      (effects (font (size 1.27 1.27)) (justify left))
    )
    (pin "PB3_SPI1_SCK" output (at 109.22 59.69 180)
      (effects (font (size 1.27 1.27)) (justify left))
    )
    (pin "PA3_ADC_IN3" input (at 109.22 78.105 180)
      (effects (font (size 1.27 1.27)) (justify left))
    )
    (pin "PA6_ADC_IN6" input (at 109.22 80.01 180)
      (effects (font (size 1.27 1.27)) (justify left))
    )
    (pin "PC6_TIM3_CH1" output (at 109.22 83.185 180)
      (effects (font (size 1.27 1.27)) (justify left))
    )
    (pin "PB5_TIM3_CH2" output (at 109.22 85.09 180)
      (effects (font (size 1.27 1.27)) (justify left))
    )
  )

  (sheet (at 192.405 21.336) (size 45.72 19.431)
    (stroke (width 0) (type solid) (color 0 0 0 0))
    (fill (color 0 0 0 0.0000))
    (uuid 00000000-0000-0000-0000-00005c204039)
    (property "Sheet name" "power" (id 0) (at 192.405 19.8369 0)
      (effects (font (size 2.9972 2.9972)) (justify left bottom))
    )
    (property "Sheet file" "power.kicad_sch" (id 1) (at 192.405 41.2755 0)
      (effects (font (size 1.27 1.27)) (justify left top))
    )
  )

  (sheet (at 193.04 128.905) (size 45.847 18.034)
    (stroke (width 0) (type solid) (color 0 0 0 0))
    (fill (color 0 0 0 0.0000))
    (uuid 00000000-0000-0000-0000-00005d52494d)
    (property "Sheet name" "sd_card" (id 0) (at 193.04 127.4059 0)
      (effects (font (size 2.9972 2.9972)) (justify left bottom))
    )
    (property "Sheet file" "sd_card.kicad_sch" (id 1) (at 193.04 147.4475 0)
      (effects (font (size 1.27 1.27)) (justify left top))
    )
  )

  (sheet (at 193.04 51.181) (size 45.847 13.843)
    (stroke (width 0) (type solid) (color 0 0 0 0))
    (fill (color 0 0 0 0.0000))
    (uuid 00000000-0000-0000-0000-00005c03df55)
    (property "Sheet name" "sdram" (id 0) (at 193.04 49.6819 0)
      (effects (font (size 2.9972 2.9972)) (justify left bottom))
    )
    (property "Sheet file" "sdram.kicad_sch" (id 1) (at 193.04 65.5325 0)
      (effects (font (size 1.27 1.27)) (justify left top))
    )
  )

  (sheet (at 109.855 20.32) (size 45.72 18.161)
    (stroke (width 0) (type solid) (color 0 0 0 0))
    (fill (color 0 0 0 0.0000))
    (uuid 00000000-0000-0000-0000-00005c07b8c8)
    (property "Sheet name" "usb" (id 0) (at 109.855 18.8209 0)
      (effects (font (size 2.9972 2.9972)) (justify left bottom))
    )
    (property "Sheet file" "usb.kicad_sch" (id 1) (at 109.855 38.9895 0)
      (effects (font (size 1.27 1.27)) (justify left top))
    )
    (pin "USB_VBUS" output (at 109.855 34.925 180)
      (effects (font (size 1.27 1.27)) (justify left))
    )
    (pin "PB14_USB_DM" bidirectional (at 109.855 23.495 180)
      (effects (font (size 1.27 1.27)) (justify left))
    )
    (pin "PB15_USB_DP" bidirectional (at 109.855 27.305 180)
      (effects (font (size 1.27 1.27)) (justify left))
    )
    (pin "PB12_USB_ID" input (at 109.855 31.115 180)
      (effects (font (size 1.27 1.27)) (justify left))
    )
  )

  (sheet_instances
    (path "/" (page "1"))
    (path "/00000000-0000-0000-0000-00005c061f84/" (page "2"))
    (path "/00000000-0000-0000-0000-00005c07b8c8/" (page "3"))
    (path "/00000000-0000-0000-0000-00005c03df55/" (page "4"))
    (path "/00000000-0000-0000-0000-00005d50fc43/" (page "5"))
    (path "/00000000-0000-0000-0000-00005f511d62/" (page "6"))
    (path "/00000000-0000-0000-0000-00005d52494d/" (page "7"))
    (path "/00000000-0000-0000-0000-00005c3f5ae0/" (page "8"))
    (path "/00000000-0000-0000-0000-00005c204039/" (page "9"))
    (path "/00000000-0000-0000-0000-00005c0272af/" (page "10"))
  )

  (symbol_instances
    (path "/00000000-0000-0000-0000-00005c061f84/00000000-0000-0000-0000-00005c81c376"
      (reference "#FLG0105") (unit 1) (value "PWR_FLAG") (footprint "")
    )
    (path "/00000000-0000-0000-0000-00005c061f84/00000000-0000-0000-0000-00005c820be5"
      (reference "#FLG0106") (unit 1) (value "PWR_FLAG") (footprint "")
    )
    (path "/00000000-0000-0000-0000-00005c061f84/00000000-0000-0000-0000-00005c07bdfa"
      (reference "#PWR016") (unit 1) (value "+3V3") (footprint "")
    )
    (path "/00000000-0000-0000-0000-00005c061f84/00000000-0000-0000-0000-00005c06e4a0"
      (reference "#PWR017") (unit 1) (value "GND") (footprint "")
    )
    (path "/00000000-0000-0000-0000-00005c061f84/00000000-0000-0000-0000-00005c0646e1"
      (reference "#PWR018") (unit 1) (value "+3V3") (footprint "")
    )
    (path "/00000000-0000-0000-0000-00005c061f84/00000000-0000-0000-0000-00005c1bb646"
      (reference "#PWR019") (unit 1) (value "+3V3") (footprint "")
    )
    (path "/00000000-0000-0000-0000-00005c061f84/00000000-0000-0000-0000-00005c080b06"
      (reference "#PWR021") (unit 1) (value "GND") (footprint "")
    )
    (path "/00000000-0000-0000-0000-00005c061f84/00000000-0000-0000-0000-00005c069790"
      (reference "#PWR022") (unit 1) (value "GND") (footprint "")
    )
    (path "/00000000-0000-0000-0000-00005c061f84/00000000-0000-0000-0000-00005c063954"
      (reference "#PWR023") (unit 1) (value "GND") (footprint "")
    )
    (path "/00000000-0000-0000-0000-00005c061f84/00000000-0000-0000-0000-00005c09a77a"
      (reference "#PWR025") (unit 1) (value "GND") (footprint "")
    )
    (path "/00000000-0000-0000-0000-00005c061f84/00000000-0000-0000-0000-00005c06407c"
      (reference "#PWR026") (unit 1) (value "GND") (footprint "")
    )
    (path "/00000000-0000-0000-0000-00005c061f84/00000000-0000-0000-0000-00005c170a05"
      (reference "#PWR027") (unit 1) (value "GND") (footprint "")
    )
    (path "/00000000-0000-0000-0000-00005c061f84/da51ec28-e298-449c-8efa-2869f7f7d919"
      (reference "#PWR042") (unit 1) (value "GND") (footprint "")
    )
    (path "/00000000-0000-0000-0000-00005c061f84/d1186021-4bc4-4271-99c6-aea721f26fa7"
      (reference "#PWR043") (unit 1) (value "GND") (footprint "")
    )
    (path "/00000000-0000-0000-0000-00005c061f84/00000000-0000-0000-0000-00005c097a6f"
      (reference "C26") (unit 1) (value "6pF") (footprint "Capacitor_SMD:C_0603_1608Metric")
    )
    (path "/00000000-0000-0000-0000-00005c061f84/00000000-0000-0000-0000-00005c09a738"
      (reference "C27") (unit 1) (value "6pF") (footprint "Capacitor_SMD:C_0603_1608Metric")
    )
    (path "/00000000-0000-0000-0000-00005c061f84/00000000-0000-0000-0000-00005c07c1db"
      (reference "C28") (unit 1) (value "100nF") (footprint "Capacitor_SMD:C_0603_1608Metric")
    )
    (path "/00000000-0000-0000-0000-00005c061f84/00000000-0000-0000-0000-00005c07c353"
      (reference "C29") (unit 1) (value "100nF") (footprint "Capacitor_SMD:C_0603_1608Metric")
    )
    (path "/00000000-0000-0000-0000-00005c061f84/00000000-0000-0000-0000-00005c06d53f"
      (reference "C30") (unit 1) (value "1uF") (footprint "Capacitor_SMD:C_0603_1608Metric")
    )
    (path "/00000000-0000-0000-0000-00005c061f84/00000000-0000-0000-0000-00005c06d7ca"
      (reference "C31") (unit 1) (value "470pF") (footprint "Capacitor_SMD:C_0603_1608Metric")
    )
    (path "/00000000-0000-0000-0000-00005c061f84/00000000-0000-0000-0000-00005c064a60"
      (reference "C32") (unit 1) (value "100nF") (footprint "Capacitor_SMD:C_0603_1608Metric")
    )
    (path "/00000000-0000-0000-0000-00005c061f84/00000000-0000-0000-0000-00005c07c385"
      (reference "CP1") (unit 1) (value "10uF") (footprint "Capacitor_Tantalum_SMD:CP_EIA-1608-08_AVX-J")
    )
    (path "/00000000-0000-0000-0000-00005c061f84/00000000-0000-0000-0000-00005c064af8"
      (reference "CP2") (unit 1) (value "10uF") (footprint "Capacitor_Tantalum_SMD:CP_EIA-1608-08_AVX-J")
    )
    (path "/00000000-0000-0000-0000-00005c061f84/00000000-0000-0000-0000-00005c07be63"
      (reference "L2") (unit 1) (value "120") (footprint "Inductor_SMD:L_0603_1608Metric")
    )
    (path "/00000000-0000-0000-0000-00005c061f84/00000000-0000-0000-0000-00005c16d207"
      (reference "R9") (unit 1) (value "10k") (footprint "Resistor_SMD:R_0603_1608Metric")
    )
    (path "/00000000-0000-0000-0000-00005c061f84/00000000-0000-0000-0000-00005c17ac42"
      (reference "R10") (unit 1) (value "10k") (footprint "Resistor_SMD:R_0603_1608Metric")
    )
    (path "/00000000-0000-0000-0000-00005c061f84/00000000-0000-0000-0000-00005c192f88"
      (reference "R11") (unit 1) (value "10k") (footprint "Resistor_SMD:R_0603_1608Metric")
    )
    (path "/00000000-0000-0000-0000-00005c061f84/00000000-0000-0000-0000-00005c1598ac"
      (reference "R12") (unit 1) (value "1k5") (footprint "Resistor_SMD:R_0603_1608Metric")
    )
    (path "/00000000-0000-0000-0000-00005c061f84/00000000-0000-0000-0000-00005c135cad"
      (reference "R13") (unit 1) (value "10k") (footprint "Resistor_SMD:R_0603_1608Metric")
    )
    (path "/00000000-0000-0000-0000-00005c061f84/00000000-0000-0000-0000-00005c19dee6"
      (reference "R14") (unit 1) (value "33R") (footprint "Resistor_SMD:R_0603_1608Metric")
    )
    (path "/00000000-0000-0000-0000-00005c061f84/00000000-0000-0000-0000-00005c185087"
      (reference "R15") (unit 1) (value "33R") (footprint "Resistor_SMD:R_0603_1608Metric")
    )
    (path "/00000000-0000-0000-0000-00005c061f84/00000000-0000-0000-0000-00005c15ccb7"
      (reference "R16") (unit 1) (value "33R") (footprint "Resistor_SMD:R_0603_1608Metric")
    )
    (path "/00000000-0000-0000-0000-00005c061f84/00000000-0000-0000-0000-00005c170858"
      (reference "R17") (unit 1) (value "10k") (footprint "Resistor_SMD:R_0603_1608Metric")
    )
    (path "/00000000-0000-0000-0000-00005c061f84/00000000-0000-0000-0000-00005c063844"
      (reference "R18") (unit 1) (value "12k1") (footprint "Resistor_SMD:R_0603_1608Metric")
    )
    (path "/00000000-0000-0000-0000-00005c061f84/6eeaa511-7733-42be-9253-0f0dc6d8d88f"
      (reference "R19") (unit 1) (value "10k") (footprint "Resistor_SMD:R_0603_1608Metric")
    )
    (path "/00000000-0000-0000-0000-00005c061f84/233a01e4-2fa9-4d16-8f14-4992654ff5c4"
      (reference "R20") (unit 1) (value "10k") (footprint "Resistor_SMD:R_0603_1608Metric")
    )
    (path "/00000000-0000-0000-0000-00005c061f84/00000000-0000-0000-0000-00005c061faf"
      (reference "U1") (unit 5) (value "STM32F769NIH6") (footprint "Package_BGA:TFBGA-216_13x13mm_Layout15x15_P0.8mm")
    )
    (path "/00000000-0000-0000-0000-00005c061f84/00000000-0000-0000-0000-00005c062095"
      (reference "U5") (unit 1) (value "LAN8742A") (footprint "Housings_DFN_QFN:QFN-24-1EP_4x4mm_Pitch0.5mm")
    )
    (path "/00000000-0000-0000-0000-00005c061f84/00000000-0000-0000-0000-00005c091ed8"
      (reference "Y3") (unit 1) (value "25Mhz") (footprint "MyFootPrint:OSC_4P_2x1_6")
    )
    (path "/00000000-0000-0000-0000-00005c07b8c8/00000000-0000-0000-0000-00005c0d7fb8"
      (reference "#PWR028") (unit 1) (value "+3V3") (footprint "")
    )
    (path "/00000000-0000-0000-0000-00005c07b8c8/00000000-0000-0000-0000-00005c0caf43"
      (reference "#PWR029") (unit 1) (value "+5V") (footprint "")
    )
    (path "/00000000-0000-0000-0000-00005c07b8c8/00000000-0000-0000-0000-00005c0cea3a"
      (reference "#PWR030") (unit 1) (value "GND") (footprint "")
    )
    (path "/00000000-0000-0000-0000-00005c07b8c8/00000000-0000-0000-0000-00005c10718e"
      (reference "#PWR031") (unit 1) (value "GND") (footprint "")
    )
    (path "/00000000-0000-0000-0000-00005c07b8c8/00000000-0000-0000-0000-00005c121117"
      (reference "#PWR032") (unit 1) (value "GND") (footprint "")
    )
    (path "/00000000-0000-0000-0000-00005c07b8c8/00000000-0000-0000-0000-00005c0cac83"
      (reference "C50") (unit 1) (value "1uF") (footprint "Capacitor_SMD:C_0603_1608Metric")
    )
    (path "/00000000-0000-0000-0000-00005c07b8c8/00000000-0000-0000-0000-00005c0e4544"
      (reference "C51") (unit 1) (value "4.7uF") (footprint "Capacitor_SMD:C_0603_1608Metric")
    )
    (path "/00000000-0000-0000-0000-00005c07b8c8/00000000-0000-0000-0000-00005f5b7460"
      (reference "D3") (unit 1) (value "RED 2mA") (footprint "LED_SMD:LED_0805_2012Metric")
    )
    (path "/00000000-0000-0000-0000-00005c07b8c8/00000000-0000-0000-0000-00005f08eeff"
      (reference "D4") (unit 1) (value "GREEN 2mA") (footprint "LED_SMD:LED_0805_2012Metric")
    )
    (path "/00000000-0000-0000-0000-00005c07b8c8/00000000-0000-0000-0000-00005c0d81da"
      (reference "R28") (unit 1) (value "750") (footprint "Resistor_SMD:R_0603_1608Metric")
    )
    (path "/00000000-0000-0000-0000-00005c07b8c8/00000000-0000-0000-0000-00005c11c238"
      (reference "R29") (unit 1) (value "750") (footprint "Resistor_SMD:R_0603_1608Metric")
    )
    (path "/00000000-0000-0000-0000-00005c07b8c8/00000000-0000-0000-0000-00005c07b8f3"
      (reference "U1") (unit 6) (value "STM32F769NIH6") (footprint "Package_BGA:TFBGA-216_13x13mm_Layout15x15_P0.8mm")
    )
    (path "/00000000-0000-0000-0000-00005c07b8c8/00000000-0000-0000-0000-00005c0c6ba9"
      (reference "U8") (unit 1) (value "STMPS21xx") (footprint "Package_TO_SOT_SMD:TSOT-23-5")
    )
    (path "/00000000-0000-0000-0000-00005c03df55/00000000-0000-0000-0000-00005c03f684"
      (reference "#PWR01") (unit 1) (value "+3V3") (footprint "")
    )
    (path "/00000000-0000-0000-0000-00005c03df55/00000000-0000-0000-0000-00005c06e91c"
      (reference "#PWR03") (unit 1) (value "GND") (footprint "")
    )
    (path "/00000000-0000-0000-0000-00005c03df55/00000000-0000-0000-0000-00005c03cbcd"
      (reference "#PWR04") (unit 1) (value "GND") (footprint "")
    )
    (path "/00000000-0000-0000-0000-00005c03df55/00000000-0000-0000-0000-00005c03e92b"
      (reference "C36") (unit 1) (value "100nF") (footprint "Capacitor_SMD:C_0603_1608Metric")
    )
    (path "/00000000-0000-0000-0000-00005c03df55/00000000-0000-0000-0000-00005c03e9ca"
      (reference "C37") (unit 1) (value "100nF") (footprint "Capacitor_SMD:C_0603_1608Metric")
    )
    (path "/00000000-0000-0000-0000-00005c03df55/00000000-0000-0000-0000-00005c03ea8d"
      (reference "C38") (unit 1) (value "100nF") (footprint "Capacitor_SMD:C_0603_1608Metric")
    )
    (path "/00000000-0000-0000-0000-00005c03df55/00000000-0000-0000-0000-00005c03eaa9"
      (reference "C39") (unit 1) (value "100nF") (footprint "Capacitor_SMD:C_0603_1608Metric")
    )
    (path "/00000000-0000-0000-0000-00005c03df55/00000000-0000-0000-0000-00005c03eac7"
      (reference "C40") (unit 1) (value "100nF") (footprint "Capacitor_SMD:C_0603_1608Metric")
    )
    (path "/00000000-0000-0000-0000-00005c03df55/00000000-0000-0000-0000-00005c03eae7"
      (reference "C41") (unit 1) (value "100nF") (footprint "Capacitor_SMD:C_0603_1608Metric")
    )
    (path "/00000000-0000-0000-0000-00005c03df55/00000000-0000-0000-0000-00005c03eb09"
      (reference "C42") (unit 1) (value "100nF") (footprint "Capacitor_SMD:C_0603_1608Metric")
    )
    (path "/00000000-0000-0000-0000-00005c03df55/00000000-0000-0000-0000-00005c03eb2d"
      (reference "C43") (unit 1) (value "100nF") (footprint "Capacitor_SMD:C_0603_1608Metric")
    )
    (path "/00000000-0000-0000-0000-00005c03df55/00000000-0000-0000-0000-00005c03eb53"
      (reference "C44") (unit 1) (value "100nF") (footprint "Capacitor_SMD:C_0603_1608Metric")
    )
    (path "/00000000-0000-0000-0000-00005c03df55/00000000-0000-0000-0000-00005c03eb93"
      (reference "C45") (unit 1) (value "100nF") (footprint "Capacitor_SMD:C_0603_1608Metric")
    )
    (path "/00000000-0000-0000-0000-00005c03df55/00000000-0000-0000-0000-00005c03ebbd"
      (reference "C46") (unit 1) (value "100nF") (footprint "Capacitor_SMD:C_0603_1608Metric")
    )
    (path "/00000000-0000-0000-0000-00005c03df55/00000000-0000-0000-0000-00005c03ec2f"
      (reference "C47") (unit 1) (value "100nF") (footprint "Capacitor_SMD:C_0603_1608Metric")
    )
    (path "/00000000-0000-0000-0000-00005c03df55/00000000-0000-0000-0000-00005c03ec61"
      (reference "C48") (unit 1) (value "100nF") (footprint "Capacitor_SMD:C_0603_1608Metric")
    )
    (path "/00000000-0000-0000-0000-00005c03df55/00000000-0000-0000-0000-00005c03ec91"
      (reference "C49") (unit 1) (value "100nF") (footprint "Capacitor_SMD:C_0603_1608Metric")
    )
    (path "/00000000-0000-0000-0000-00005c03df55/00000000-0000-0000-0000-00005c03c50c"
      (reference "U1") (unit 2) (value "STM32F769NIH6") (footprint "Package_BGA:TFBGA-216_13x13mm_Layout15x15_P0.8mm")
    )
    (path "/00000000-0000-0000-0000-00005c03df55/00000000-0000-0000-0000-00005c03c5f2"
      (reference "U6") (unit 1) (value "SDRAM_BGA-90") (footprint "Package_BGA:BGA-90_8.0x13.0mm_Layout2x3x15_P0.8mm")
    )
    (path "/00000000-0000-0000-0000-00005d50fc43/00000000-0000-0000-0000-00005d51a740"
      (reference "#PWR07") (unit 1) (value "+3V3") (footprint "")
    )
    (path "/00000000-0000-0000-0000-00005d50fc43/00000000-0000-0000-0000-00005d51a6a3"
      (reference "#PWR08") (unit 1) (value "+3V3") (footprint "")
    )
    (path "/00000000-0000-0000-0000-00005d50fc43/00000000-0000-0000-0000-00005d51a6de"
      (reference "#PWR09") (unit 1) (value "GND") (footprint "")
    )
    (path "/00000000-0000-0000-0000-00005d50fc43/00000000-0000-0000-0000-00005d51a556"
      (reference "C7") (unit 1) (value "100nF") (footprint "Capacitor_SMD:C_0603_1608Metric")
    )
    (path "/00000000-0000-0000-0000-00005d50fc43/00000000-0000-0000-0000-00005d51a5fb"
      (reference "R5") (unit 1) (value "10k") (footprint "Resistor_SMD:R_0603_1608Metric")
    )
    (path "/00000000-0000-0000-0000-00005d50fc43/00000000-0000-0000-0000-00005d519148"
      (reference "U1") (unit 3) (value "STM32F769NIH6") (footprint "Package_BGA:TFBGA-216_13x13mm_Layout15x15_P0.8mm")
    )
    (path "/00000000-0000-0000-0000-00005d50fc43/00000000-0000-0000-0000-00005d51a423"
      (reference "U2") (unit 1) (value "QSPI_NOR") (footprint "SamacSys_Parts:SON127P800X600X80-9N-D")
    )
    (path "/00000000-0000-0000-0000-00005f511d62/00000000-0000-0000-0000-00005ec3867d"
      (reference "#PWR015") (unit 1) (value "+3V3") (footprint "")
    )
    (path "/00000000-0000-0000-0000-00005f511d62/00000000-0000-0000-0000-00005e2e493a"
      (reference "#PWR0101") (unit 1) (value "GND") (footprint "")
    )
    (path "/00000000-0000-0000-0000-00005f511d62/00000000-0000-0000-0000-00005e2e3469"
      (reference "#PWR0102") (unit 1) (value "GND") (footprint "")
    )
    (path "/00000000-0000-0000-0000-00005f511d62/00000000-0000-0000-0000-00005ec3bbec"
      (reference "#PWR0103") (unit 1) (value "+3V3") (footprint "")
    )
    (path "/00000000-0000-0000-0000-00005f511d62/00000000-0000-0000-0000-00005e2e3cf6"
      (reference "C8") (unit 1) (value "100nF") (footprint "Capacitor_SMD:C_0603_1608Metric")
    )
    (path "/00000000-0000-0000-0000-00005f511d62/00000000-0000-0000-0000-00005e2ef758"
      (reference "R6") (unit 1) (value "10k") (footprint "Resistor_SMD:R_0603_1608Metric")
    )
    (path "/00000000-0000-0000-0000-00005f511d62/00000000-0000-0000-0000-00005e2e6db1"
      (reference "R7") (unit 1) (value "10k") (footprint "Resistor_SMD:R_0603_1608Metric")
    )
    (path "/00000000-0000-0000-0000-00005f511d62/00000000-0000-0000-0000-00005f5c2394"
      (reference "U1") (unit 8) (value "STM32F769NIH6") (footprint "Package_BGA:TFBGA-216_13x13mm_Layout15x15_P0.8mm")
    )
    (path "/00000000-0000-0000-0000-00005f511d62/00000000-0000-0000-0000-00005e2e004c"
      (reference "U3") (unit 1) (value "24CW1280T-I_OT") (footprint "SamacSys_Parts:SOT95P280X145-5N")
    )
    (path "/00000000-0000-0000-0000-00005d52494d/00000000-0000-0000-0000-00005d53e71c"
      (reference "#PWR010") (unit 1) (value "+3V3") (footprint "")
    )
    (path "/00000000-0000-0000-0000-00005d52494d/00000000-0000-0000-0000-00005d53ffe2"
      (reference "#PWR011") (unit 1) (value "+3V3") (footprint "")
    )
    (path "/00000000-0000-0000-0000-00005d52494d/00000000-0000-0000-0000-00005d541aaf"
      (reference "#PWR012") (unit 1) (value "GND") (footprint "")
    )
    (path "/00000000-0000-0000-0000-00005d52494d/00000000-0000-0000-0000-00005d53eda3"
      (reference "#PWR013") (unit 1) (value "GND") (footprint "")
    )
    (path "/00000000-0000-0000-0000-00005d52494d/00000000-0000-0000-0000-00005d5413b5"
      (reference "#PWR014") (unit 1) (value "+3V3") (footprint "")
    )
    (path "/00000000-0000-0000-0000-00005d52494d/00000000-0000-0000-0000-00005d53e508"
      (reference "#PWR0104") (unit 1) (value "GND") (footprint "")
    )
    (path "/00000000-0000-0000-0000-00005d52494d/00000000-0000-0000-0000-00005d54196c"
      (reference "C33") (unit 1) (value "100nF") (footprint "Capacitor_SMD:C_0603_1608Metric")
    )
    (path "/00000000-0000-0000-0000-00005d52494d/00000000-0000-0000-0000-00005d53e7d2"
      (reference "R21") (unit 1) (value "100k") (footprint "Resistor_SMD:R_0603_1608Metric")
    )
    (path "/00000000-0000-0000-0000-00005d52494d/00000000-0000-0000-0000-00005d540032"
      (reference "R22") (unit 1) (value "100k") (footprint "Resistor_SMD:R_0603_1608Metric")
    )
    (path "/00000000-0000-0000-0000-00005d52494d/00000000-0000-0000-0000-00005d54006e"
      (reference "R23") (unit 1) (value "100k") (footprint "Resistor_SMD:R_0603_1608Metric")
    )
    (path "/00000000-0000-0000-0000-00005d52494d/00000000-0000-0000-0000-00005d5405de"
      (reference "R24") (unit 1) (value "100k") (footprint "Resistor_SMD:R_0603_1608Metric")
    )
    (path "/00000000-0000-0000-0000-00005d52494d/00000000-0000-0000-0000-00005d540610"
      (reference "R25") (unit 1) (value "100k") (footprint "Resistor_SMD:R_0603_1608Metric")
    )
    (path "/00000000-0000-0000-0000-00005d52494d/00000000-0000-0000-0000-00005d54092b"
      (reference "R26") (unit 1) (value "100k") (footprint "Resistor_SMD:R_0603_1608Metric")
    )
    (path "/00000000-0000-0000-0000-00005d52494d/00000000-0000-0000-0000-00005d54064d"
      (reference "R27") (unit 1) (value "22R") (footprint "Resistor_SMD:R_0603_1608Metric")
    )
    (path "/00000000-0000-0000-0000-00005d52494d/00000000-0000-0000-0000-00005d70a1ef"
      (reference "SD1") (unit 1) (value "microSD_Card_Molex_v1") (footprint "MyFootPrint:microSD-473093351")
    )
    (path "/00000000-0000-0000-0000-00005d52494d/00000000-0000-0000-0000-00005d524973"
      (reference "U1") (unit 4) (value "STM32F769NIH6") (footprint "Package_BGA:TFBGA-216_13x13mm_Layout15x15_P0.8mm")
    )
    (path "/00000000-0000-0000-0000-00005c3f5ae0/00000000-0000-0000-0000-00005ef7e053"
      (reference "#PWR049") (unit 1) (value "+5V") (footprint "")
    )
    (path "/00000000-0000-0000-0000-00005c3f5ae0/00000000-0000-0000-0000-00005f071637"
      (reference "#PWR050") (unit 1) (value "GND") (footprint "")
    )
    (path "/00000000-0000-0000-0000-00005c3f5ae0/00000000-0000-0000-0000-00005f0389f3"
      (reference "#PWR051") (unit 1) (value "+3V3") (footprint "")
    )
    (path "/00000000-0000-0000-0000-00005c3f5ae0/00000000-0000-0000-0000-00005ef147e3"
      (reference "#PWR052") (unit 1) (value "GND") (footprint "")
    )
    (path "/00000000-0000-0000-0000-00005c3f5ae0/00000000-0000-0000-0000-00005f0365b5"
      (reference "H1") (unit 1) (value "MountingHole") (footprint "MountingHole:MountingHole_2.7mm_M2.5_Pad_Via")
    )
    (path "/00000000-0000-0000-0000-00005c3f5ae0/00000000-0000-0000-0000-00005eef272b"
      (reference "J1") (unit 1) (value "M 2") (footprint "MyFootPrint:M.2_PCB")
    )
    (path "/00000000-0000-0000-0000-00005c3f5ae0/00000000-0000-0000-0000-00005ef01e22"
      (reference "J2") (unit 1) (value "53261-0571") (footprint "SamacSys_Parts:532610571TR250")
    )
    (path "/00000000-0000-0000-0000-00005c204039/00000000-0000-0000-0000-00005cecae3e"
      (reference "#FLG01") (unit 1) (value "PWR_FLAG") (footprint "")
    )
    (path "/00000000-0000-0000-0000-00005c204039/00000000-0000-0000-0000-00005efe5807"
      (reference "#FLG02") (unit 1) (value "PWR_FLAG") (footprint "")
    )
    (path "/00000000-0000-0000-0000-00005c204039/00000000-0000-0000-0000-00005f21c709"
      (reference "#FLG03") (unit 1) (value "PWR_FLAG") (footprint "")
    )
    (path "/00000000-0000-0000-0000-00005c204039/00000000-0000-0000-0000-00005efe989e"
      (reference "#PWR02") (unit 1) (value "+3V3") (footprint "")
    )
    (path "/00000000-0000-0000-0000-00005c204039/3a63703a-eab8-4beb-aed8-09b50555d9bc"
      (reference "#PWR05") (unit 1) (value "+5V") (footprint "")
    )
    (path "/00000000-0000-0000-0000-00005c204039/ae0e03c7-04bb-4ed0-a21e-6f1d45e89465"
      (reference "#PWR06") (unit 1) (value "GND") (footprint "")
    )
    (path "/00000000-0000-0000-0000-00005c204039/9638bb2f-5458-4a45-8e0c-3b5fad0331a9"
      (reference "#PWR020") (unit 1) (value "GND") (footprint "")
    )
    (path "/00000000-0000-0000-0000-00005c204039/3fe5e180-c135-4427-870c-5b67957f5617"
      (reference "#PWR024") (unit 1) (value "GND") (footprint "")
    )
    (path "/00000000-0000-0000-0000-00005c204039/fef28162-0e99-46b8-9f8b-93668e27383b"
      (reference "#PWR033") (unit 1) (value "+3V3") (footprint "")
    )
    (path "/00000000-0000-0000-0000-00005c204039/4729e46d-c7df-4592-a5ab-d72c9c56d3ba"
      (reference "#PWR034") (unit 1) (value "GND") (footprint "")
    )
    (path "/00000000-0000-0000-0000-00005c204039/0ab37aea-250a-4c39-bc0b-a879c236aac6"
      (reference "#PWR035") (unit 1) (value "GND") (footprint "")
    )
    (path "/00000000-0000-0000-0000-00005c204039/00000000-0000-0000-0000-00005efe35fd"
      (reference "#PWR0105") (unit 1) (value "+5V") (footprint "")
    )
    (path "/00000000-0000-0000-0000-00005c204039/00000000-0000-0000-0000-00005f003546"
      (reference "#PWR0106") (unit 1) (value "GND") (footprint "")
    )
    (path "/00000000-0000-0000-0000-00005c204039/b75bb810-b28a-4532-828e-03792f70df1e"
      (reference "C9") (unit 1) (value "10uF") (footprint "Capacitor_SMD:C_0603_1608Metric")
    )
    (path "/00000000-0000-0000-0000-00005c204039/a02aa427-01b5-4a88-a46f-429f144d2369"
      (reference "C10") (unit 1) (value "1uF") (footprint "Capacitor_SMD:C_0603_1608Metric")
    )
    (path "/00000000-0000-0000-0000-00005c204039/35397c86-5188-406f-8b8f-f82bc94c6a6f"
      (reference "C11") (unit 1) (value "10uF") (footprint "Capacitor_SMD:C_0603_1608Metric")
    )
    (path "/00000000-0000-0000-0000-00005c204039/f24b5ad8-820a-4065-a300-8b65dc335706"
      (reference "D2") (unit 1) (value "GREEN 2mA") (footprint "LED_SMD:LED_0805_2012Metric")
    )
    (path "/00000000-0000-0000-0000-00005c204039/9abdab83-c259-45fa-ba2c-6f58cf3b15dc"
      (reference "R8") (unit 1) (value "750") (footprint "Resistor_SMD:R_0603_1608Metric")
    )
    (path "/00000000-0000-0000-0000-00005c204039/332ddd70-4189-474c-a500-421e86e8689e"
      (reference "U4") (unit 1) (value "NCP708MU330TAG") (footprint "SamacSys_Parts:SON95P300X300X55-7N")
    )
    (path "/00000000-0000-0000-0000-00005c0272af/00000000-0000-0000-0000-00005cc80036"
      (reference "#FLG0111") (unit 1) (value "PWR_FLAG") (footprint "")
    )
    (path "/00000000-0000-0000-0000-00005c0272af/00000000-0000-0000-0000-00005f573018"
      (reference "#PWR036") (unit 1) (value "GND") (footprint "")
    )
    (path "/00000000-0000-0000-0000-00005c0272af/8015feb4-17cc-4aca-8269-a4e17efb1c2e"
      (reference "#PWR037") (unit 1) (value "GND") (footprint "")
    )
    (path "/00000000-0000-0000-0000-00005c0272af/a763149c-e5fd-4d59-9ed4-15b8593b54aa"
      (reference "#PWR038") (unit 1) (value "+3.3V") (footprint "")
    )
    (path "/00000000-0000-0000-0000-00005c0272af/5202d3a2-1263-4cb4-8811-fdf0f7554424"
      (reference "#PWR039") (unit 1) (value "GND") (footprint "")
    )
    (path "/00000000-0000-0000-0000-00005c0272af/9ecf2278-a704-4c55-b479-7a51f24b7201"
      (reference "#PWR040") (unit 1) (value "GND") (footprint "")
    )
    (path "/00000000-0000-0000-0000-00005c0272af/00000000-0000-0000-0000-00005ef19a6d"
      (reference "#PWR041") (unit 1) (value "GND") (footprint "")
    )
    (path "/00000000-0000-0000-0000-00005c0272af/2f5bbbcf-d44e-4900-a013-3c05035ac88d"
      (reference "#PWR044") (unit 1) (value "+5V") (footprint "")
    )
    (path "/00000000-0000-0000-0000-00005c0272af/5b2b01d0-257e-4980-91a8-b59b16c61e62"
      (reference "#PWR045") (unit 1) (value "GND") (footprint "")
    )
    (path "/00000000-0000-0000-0000-00005c0272af/7f4d4793-1754-450c-9c4e-a0bced5e0ed1"
      (reference "#PWR046") (unit 1) (value "GND") (footprint "")
    )
    (path "/00000000-0000-0000-0000-00005c0272af/00000000-0000-0000-0000-00005e58c880"
      (reference "#PWR047") (unit 1) (value "GND") (footprint "")
    )
    (path "/00000000-0000-0000-0000-00005c0272af/44a3216a-7a12-46d0-80a6-7b19cde27b0c"
      (reference "#PWR048") (unit 1) (value "+3.3V") (footprint "")
    )
    (path "/00000000-0000-0000-0000-00005c0272af/dd9c778b-b89c-4b1f-949a-798bb036347a"
      (reference "#PWR053") (unit 1) (value "GND") (footprint "")
    )
    (path "/00000000-0000-0000-0000-00005c0272af/00000000-0000-0000-0000-00005c6b7857"
      (reference "#PWR063") (unit 1) (value "GND") (footprint "")
    )
    (path "/00000000-0000-0000-0000-00005c0272af/00000000-0000-0000-0000-00005c3ca024"
      (reference "#PWR064") (unit 1) (value "+3V3") (footprint "")
    )
    (path "/00000000-0000-0000-0000-00005c0272af/00000000-0000-0000-0000-00005c35d775"
      (reference "#PWR065") (unit 1) (value "GND") (footprint "")
    )
    (path "/00000000-0000-0000-0000-00005c0272af/00000000-0000-0000-0000-00005c6420e0"
      (reference "#PWR066") (unit 1) (value "GND") (footprint "")
    )
    (path "/00000000-0000-0000-0000-00005c0272af/00000000-0000-0000-0000-00005c390319"
      (reference "#PWR068") (unit 1) (value "+3V3") (footprint "")
    )
    (path "/00000000-0000-0000-0000-00005c0272af/00000000-0000-0000-0000-00005c261c14"
      (reference "#PWR069") (unit 1) (value "GND") (footprint "")
    )
    (path "/00000000-0000-0000-0000-00005c0272af/00000000-0000-0000-0000-00005c3645cb"
      (reference "#PWR071") (unit 1) (value "GND") (footprint "")
    )
    (path "/00000000-0000-0000-0000-00005c0272af/00000000-0000-0000-0000-00005c374d36"
      (reference "#PWR072") (unit 1) (value "GND") (footprint "")
    )
    (path "/00000000-0000-0000-0000-00005c0272af/00000000-0000-0000-0000-00005cd03ed2"
      (reference "#PWR074") (unit 1) (value "+3V3") (footprint "")
    )
    (path "/00000000-0000-0000-0000-00005c0272af/00000000-0000-0000-0000-00005cca53f2"
      (reference "#PWR075") (unit 1) (value "+3V3") (footprint "")
    )
    (path "/00000000-0000-0000-0000-00005c0272af/00000000-0000-0000-0000-00005cd03ed8"
      (reference "#PWR077") (unit 1) (value "GND") (footprint "")
    )
    (path "/00000000-0000-0000-0000-00005c0272af/00000000-0000-0000-0000-00005c39452f"
      (reference "#PWR079") (unit 1) (value "GND") (footprint "")
    )
    (path "/00000000-0000-0000-0000-00005c0272af/00000000-0000-0000-0000-00005c41df40"
      (reference "#PWR081") (unit 1) (value "GND") (footprint "")
    )
    (path "/00000000-0000-0000-0000-00005c0272af/00000000-0000-0000-0000-00005c49d341"
      (reference "#PWR082") (unit 1) (value "+3V3") (footprint "")
    )
    (path "/00000000-0000-0000-0000-00005c0272af/00000000-0000-0000-0000-00005c453268"
      (reference "#PWR083") (unit 1) (value "GND") (footprint "")
    )
    (path "/00000000-0000-0000-0000-00005c0272af/00000000-0000-0000-0000-00005cc80df5"
      (reference "BT1") (unit 1) (value "BT RESET") (footprint "Button_Switch_SMD:SW_SPST_B3U-1000P")
    )
    (path "/00000000-0000-0000-0000-00005c0272af/c4edf89b-9935-4b24-82ed-b4259b24e3c4"
      (reference "BT2") (unit 1) (value "BT USER") (footprint "Button_Switch_SMD:SW_SPST_B3U-1000P")
    )
    (path "/00000000-0000-0000-0000-00005c0272af/00000000-0000-0000-0000-00005c65286c"
      (reference "C1") (unit 1) (value "6pF") (footprint "Capacitor_SMD:C_0603_1608Metric")
    )
    (path "/00000000-0000-0000-0000-00005c0272af/00000000-0000-0000-0000-00005c6527e4"
      (reference "C2") (unit 1) (value "6pF") (footprint "Capacitor_SMD:C_0603_1608Metric")
    )
    (path "/00000000-0000-0000-0000-00005c0272af/00000000-0000-0000-0000-00005c6420d9"
      (reference "C3") (unit 1) (value "6pF") (footprint "Capacitor_SMD:C_0603_1608Metric")
    )
    (path "/00000000-0000-0000-0000-00005c0272af/00000000-0000-0000-0000-00005c6420d2"
      (reference "C4") (unit 1) (value "6pF") (footprint "Capacitor_SMD:C_0603_1608Metric")
    )
    (path "/00000000-0000-0000-0000-00005c0272af/00000000-0000-0000-0000-00005e58c0a4"
      (reference "C5") (unit 1) (value "100nF") (footprint "Capacitor_SMD:C_0603_1608Metric")
    )
    (path "/00000000-0000-0000-0000-00005c0272af/3907e78b-81ba-4075-82dd-10e1b040432c"
      (reference "C6") (unit 1) (value "100nF") (footprint "Capacitor_SMD:C_0603_1608Metric")
    )
    (path "/00000000-0000-0000-0000-00005c0272af/00000000-0000-0000-0000-00005c43bc7e"
      (reference "C12") (unit 1) (value "100nF") (footprint "Capacitor_SMD:C_0603_1608Metric")
    )
    (path "/00000000-0000-0000-0000-00005c0272af/00000000-0000-0000-0000-00005c43bc84"
      (reference "C13") (unit 1) (value "100nF") (footprint "Capacitor_SMD:C_0603_1608Metric")
    )
    (path "/00000000-0000-0000-0000-00005c0272af/00000000-0000-0000-0000-00005c43bc8a"
      (reference "C14") (unit 1) (value "100nF") (footprint "Capacitor_SMD:C_0603_1608Metric")
    )
    (path "/00000000-0000-0000-0000-00005c0272af/00000000-0000-0000-0000-00005c43bc90"
      (reference "C15") (unit 1) (value "100nF") (footprint "Capacitor_SMD:C_0603_1608Metric")
    )
    (path "/00000000-0000-0000-0000-00005c0272af/00000000-0000-0000-0000-00005c43bc96"
      (reference "C16") (unit 1) (value "100nF") (footprint "Capacitor_SMD:C_0603_1608Metric")
    )
    (path "/00000000-0000-0000-0000-00005c0272af/00000000-0000-0000-0000-00005c43bc9c"
      (reference "C17") (unit 1) (value "100nF") (footprint "Capacitor_SMD:C_0603_1608Metric")
    )
    (path "/00000000-0000-0000-0000-00005c0272af/00000000-0000-0000-0000-00005c43bca2"
      (reference "C18") (unit 1) (value "100nF") (footprint "Capacitor_SMD:C_0603_1608Metric")
    )
    (path "/00000000-0000-0000-0000-00005c0272af/00000000-0000-0000-0000-00005c43bca8"
      (reference "C19") (unit 1) (value "100nF") (footprint "Capacitor_SMD:C_0603_1608Metric")
    )
    (path "/00000000-0000-0000-0000-00005c0272af/00000000-0000-0000-0000-00005c261baf"
      (reference "C20") (unit 1) (value "2.2uF") (footprint "Capacitor_SMD:C_0603_1608Metric")
    )
    (path "/00000000-0000-0000-0000-00005c0272af/00000000-0000-0000-0000-00005c261b4a"
      (reference "C21") (unit 1) (value "2.2uF") (footprint "Capacitor_SMD:C_0603_1608Metric")
    )
    (path "/00000000-0000-0000-0000-00005c0272af/00000000-0000-0000-0000-00005c38cd4f"
      (reference "C22") (unit 1) (value "100nF") (footprint "Capacitor_SMD:C_0603_1608Metric")
    )
    (path "/00000000-0000-0000-0000-00005c0272af/c8653cdd-918f-4153-8248-9deffe177785"
      (reference "C23") (unit 1) (value "2.2uF") (footprint "Capacitor_SMD:C_0603_1608Metric")
    )
    (path "/00000000-0000-0000-0000-00005c0272af/b32754e2-737c-4a4a-a19a-d3dd42c29759"
      (reference "C24") (unit 1) (value "100nF") (footprint "Capacitor_SMD:C_0603_1608Metric")
    )
    (path "/00000000-0000-0000-0000-00005c0272af/b735e69b-0aac-44c3-be39-5807afa8bc86"
      (reference "C25") (unit 1) (value "100nF") (footprint "Capacitor_SMD:C_0603_1608Metric")
    )
    (path "/00000000-0000-0000-0000-00005c0272af/00000000-0000-0000-0000-00005c429c13"
      (reference "C34") (unit 1) (value "2.2uF") (footprint "Capacitor_SMD:C_0603_1608Metric")
    )
    (path "/00000000-0000-0000-0000-00005c0272af/00000000-0000-0000-0000-00005c41df32"
      (reference "C35") (unit 1) (value "100nF") (footprint "Capacitor_SMD:C_0603_1608Metric")
    )
    (path "/00000000-0000-0000-0000-00005c0272af/00000000-0000-0000-0000-00005c374d00"
      (reference "C66") (unit 1) (value "100nF") (footprint "Capacitor_SMD:C_0603_1608Metric")
    )
    (path "/00000000-0000-0000-0000-00005c0272af/00000000-0000-0000-0000-00005c44d38a"
      (reference "C82") (unit 1) (value "100nF") (footprint "Capacitor_SMD:C_0603_1608Metric")
    )
    (path "/00000000-0000-0000-0000-00005c0272af/00000000-0000-0000-0000-00005c430008"
      (reference "C83") (unit 1) (value "100nF") (footprint "Capacitor_SMD:C_0603_1608Metric")
    )
    (path "/00000000-0000-0000-0000-00005c0272af/00000000-0000-0000-0000-00005c430048"
      (reference "C84") (unit 1) (value "100nF") (footprint "Capacitor_SMD:C_0603_1608Metric")
    )
    (path "/00000000-0000-0000-0000-00005c0272af/00000000-0000-0000-0000-00005c430239"
      (reference "C85") (unit 1) (value "100nF") (footprint "Capacitor_SMD:C_0603_1608Metric")
    )
    (path "/00000000-0000-0000-0000-00005c0272af/00000000-0000-0000-0000-00005c430271"
      (reference "C86") (unit 1) (value "100nF") (footprint "Capacitor_SMD:C_0603_1608Metric")
    )
    (path "/00000000-0000-0000-0000-00005c0272af/00000000-0000-0000-0000-00005c435f40"
      (reference "C87") (unit 1) (value "100nF") (footprint "Capacitor_SMD:C_0603_1608Metric")
    )
    (path "/00000000-0000-0000-0000-00005c0272af/00000000-0000-0000-0000-00005c435f46"
      (reference "C88") (unit 1) (value "100nF") (footprint "Capacitor_SMD:C_0603_1608Metric")
    )
    (path "/00000000-0000-0000-0000-00005c0272af/00000000-0000-0000-0000-00005c435f4c"
      (reference "C89") (unit 1) (value "100nF") (footprint "Capacitor_SMD:C_0603_1608Metric")
    )
    (path "/00000000-0000-0000-0000-00005c0272af/00000000-0000-0000-0000-00005c435f52"
      (reference "C90") (unit 1) (value "100nF") (footprint "Capacitor_SMD:C_0603_1608Metric")
    )
    (path "/00000000-0000-0000-0000-00005c0272af/00000000-0000-0000-0000-00005c44d384"
      (reference "C91") (unit 1) (value "100nF") (footprint "Capacitor_SMD:C_0603_1608Metric")
    )
    (path "/00000000-0000-0000-0000-00005c0272af/00000000-0000-0000-0000-00005c452f6e"
      (reference "C92") (unit 1) (value "100nF") (footprint "Capacitor_SMD:C_0603_1608Metric")
    )
    (path "/00000000-0000-0000-0000-00005c0272af/00000000-0000-0000-0000-00005c86b99e"
      (reference "D1") (unit 1) (value "GREEN 2mA") (footprint "LED_SMD:LED_0805_2012Metric")
    )
    (path "/00000000-0000-0000-0000-00005c0272af/00000000-0000-0000-0000-00005c39d23c"
      (reference "L1") (unit 1) (value "FCM1608KF-601T03") (footprint "Inductor_SMD:L_0603_1608Metric")
    )
    (path "/00000000-0000-0000-0000-00005c0272af/00000000-0000-0000-0000-00005cca4e8b"
      (reference "R1") (unit 1) (value "10k") (footprint "Resistor_SMD:R_0603_1608Metric")
    )
    (path "/00000000-0000-0000-0000-00005c0272af/00000000-0000-0000-0000-00005eba85cc"
      (reference "R2") (unit 1) (value "10K") (footprint "Resistor_SMD:R_0603_1608Metric")
    )
    (path "/00000000-0000-0000-0000-00005c0272af/34ffade9-391a-45f8-9e41-c18d317ad578"
      (reference "R3") (unit 1) (value "10K") (footprint "Resistor_SMD:R_0603_1608Metric")
    )
    (path "/00000000-0000-0000-0000-00005c0272af/00000000-0000-0000-0000-00005c86b996"
      (reference "R4") (unit 1) (value "750") (footprint "Resistor_SMD:R_0603_1608Metric")
    )
    (path "/00000000-0000-0000-0000-00005c0272af/00000000-0000-0000-0000-00005c364518"
      (reference "R30") (unit 1) (value "10k") (footprint "Resistor_SMD:R_0603_1608Metric")
    )
    (path "/00000000-0000-0000-0000-00005c0272af/00000000-0000-0000-0000-00005cd03ec6"
      (reference "R52") (unit 1) (value "10k") (footprint "Resistor_SMD:R_0603_1608Metric")
    )
    (path "/00000000-0000-0000-0000-00005c0272af/00000000-0000-0000-0000-00005cd03ecc"
      (reference "R55") (unit 1) (value "NC") (footprint "Resistor_SMD:R_0603_1608Metric")
    )
    (path "/00000000-0000-0000-0000-00005c0272af/00000000-0000-0000-0000-00005c03e14c"
      (reference "U1") (unit 1) (value "STM32F769NIH6") (footprint "Package_BGA:TFBGA-216_13x13mm_Layout15x15_P0.8mm")
    )
    (path "/00000000-0000-0000-0000-00005c0272af/00000000-0000-0000-0000-00005c2b5e9f"
      (reference "U1") (unit 7) (value "STM32F769NIH6") (footprint "Package_BGA:TFBGA-216_13x13mm_Layout15x15_P0.8mm")
    )
    (path "/00000000-0000-0000-0000-00005c0272af/30ed7718-7714-4d47-a4af-80c0784b98f2"
      (reference "U7") (unit 1) (value "ATA6561-GBQW-N") (footprint "MyFootPrint:VDFN-8-1EP_3x3mm_Pitch0.65mm")
    )
    (path "/00000000-0000-0000-0000-00005c0272af/00000000-0000-0000-0000-00005c65233e"
      (reference "Y1") (unit 1) (value "32.786 Khz") (footprint "MyFootPrint:OSCI_3_2_X1_5")
    )
    (path "/00000000-0000-0000-0000-00005c0272af/00000000-0000-0000-0000-00005c6420ca"
      (reference "Y2") (unit 1) (value "25Mhz") (footprint "MyFootPrint:OSC_4P_2x1_6")
    )
  )
)
