EESchema Schematic File Version 5
EELAYER 30 0
EELAYER END
$Descr A4 11693 8268
encoding utf-8
Sheet 1 10
Title "izirunf7"
Date "2020-08-31"
Rev "A"
Comp "IZITRON"
Comment1 "www.izitron.com"
Comment2 ""
Comment3 ""
Comment4 ""
Comment5 ""
Comment6 ""
Comment7 ""
Comment8 ""
Comment9 ""
$EndDescr
$Sheet
S 1350 3310 1805 545 
U 5C03DF55
F0 "sdram" 118
F1 "sdram.sch" 50
$EndSheet
$Sheet
S 1350 4290 1805 455 
U 5D50FC43
F0 "flash" 118
F1 "flash.sch" 50
$EndSheet
$Sheet
S 1350 6195 1805 710 
U 5D52494D
F0 "sd_card" 118
F1 "sd_card.sch" 50
$EndSheet
$Sheet
S 1350 750  1800 1050
U 5C061F84
F0 "eth" 118
F1 "eth.sch" 50
F2 "TXP" B R 3150 1025 50 
F3 "TXN" B R 3150 1125 50 
F4 "RXP" B R 3150 1225 50 
F5 "RXN" B R 3150 1325 50 
F6 "LED_Y" O R 3150 1625 50 
F7 "LED_G" O R 3150 1475 50 
F8 "NRST" I R 3150 875 50 
$EndSheet
$Sheet
S 4550 750  1950 4750
U 5C3F5AE0
F0 "connector" 118
F1 "connector.sch" 50
F2 "5" U L 4550 2225 50 
F3 "7" U L 4550 2350 50 
F4 "9" U L 4550 2450 50 
F5 "11" U L 4550 2650 50 
F6 "13" U L 4550 850 50 
F7 "15" U L 4550 975 50 
F8 "17" U L 4550 1100 50 
F9 "19" U L 4550 1225 50 
F10 "21" U L 4550 1425 50 
F11 "23" U L 4550 1525 50 
F12 "25" U R 6500 4625 50 
F13 "27" U R 6500 4725 50 
F14 "29" U R 6500 4825 50 
F15 "31" U R 6500 4925 50 
F16 "33" U R 6500 5025 50 
F17 "35" U R 6500 5125 50 
F18 "37" U R 6500 3050 50 
F19 "39" U R 6500 975 50 
F20 "41" U R 6500 1050 50 
F21 "43" U R 6500 4000 50 
F22 "45" U R 6500 3925 50 
F23 "47" U R 6500 3850 50 
F24 "49" U R 6500 3350 50 
F25 "51" U R 6500 3725 50 
F26 "53" U R 6500 2325 50 
F27 "55" U R 6500 2175 50 
F28 "57" U R 6500 3425 50 
F29 "59" U R 6500 4150 50 
F30 "61" U R 6500 4075 50 
F31 "63" U R 6500 900 50 
F32 "65" U R 6500 2925 50 
F33 "67" U R 6500 2850 50 
F34 "6" U L 4550 4275 50 
F35 "8" U L 4550 4125 50 
F36 "10" U L 4550 3975 50 
F37 "12" U L 4550 3825 50 
F38 "14" U R 6500 5275 50 
F39 "16" U R 6500 5350 50 
F40 "18" U R 6500 2550 50 
F41 "20" U R 6500 2625 50 
F42 "22" U R 6500 2475 50 
F43 "24" U R 6500 1950 50 
F44 "26" U R 6500 1725 50 
F45 "28" U R 6500 2100 50 
F46 "30" U R 6500 3125 50 
F47 "32" U R 6500 1650 50 
F48 "34" U R 6500 1575 50 
F49 "36" U R 6500 1275 50 
F50 "38" U R 6500 1350 50 
F51 "40" U R 6500 1200 50 
F52 "42" U R 6500 1125 50 
F53 "44" U R 6500 1425 50 
F54 "46" U R 6500 4500 50 
F55 "48" U R 6500 3650 50 
F56 "50" U R 6500 3575 50 
F57 "52" U R 6500 1875 50 
F58 "54" U R 6500 1800 50 
F59 "56" U R 6500 4425 50 
F60 "58" U R 6500 4350 50 
F61 "60" U R 6500 4225 50 
F62 "62" U R 6500 2400 50 
F63 "64" U R 6500 3200 50 
F64 "66" U R 6500 2775 50 
$EndSheet
$Sheet
S 8250 750  1800 5425
U 5C0272AF
F0 "mcu" 118
F1 "mcu.sch" 50
F2 "VBAT_RTC" I L 8250 5275 50 
F3 "PB14" B L 8250 1950 50 
F4 "PB7" B L 8250 1725 50 
F5 "PB3" B L 8250 1575 50 
F6 "PD12" B L 8250 2550 50 
F7 "PD13" B L 8250 2625 50 
F8 "PC6" B L 8250 2100 50 
F9 "PD11" B L 8250 2475 50 
F10 "PA11" B L 8250 1125 50 
F11 "PA12" B L 8250 1200 50 
F12 "POWER_KEY_OUT" I L 8250 5800 50 
F13 "PWR_MODE" O L 8250 5950 50 
F14 "BAT_HCHG" B L 8250 5725 50 
F15 "BAT_SUSP" O L 8250 6100 50 
F16 "PS_HOLD" O L 8250 6025 50 
F17 "INT_POWER" I L 8250 5875 50 
F18 "USER_BOOT" I L 8250 5350 50 
F19 "OTG_FAULT" I L 8250 5550 50 
F20 "NRST" I R 10050 6100 50 
F21 "PA13" B L 8250 1275 50 
F22 "PA14" B L 8250 1350 50 
F23 "PB9" B L 8250 1875 50 
F24 "PK4" B L 8250 4425 50 
F25 "PK3" B L 8250 4350 50 
F26 "PJ15" B L 8250 4225 50 
F27 "PD6" B L 8250 2400 50 
F28 "PG12" B L 8250 3200 50 
F29 "PE4" B L 8250 2775 50 
F30 "PD3" B L 8250 2325 50 
F31 "PC7" B L 8250 2175 50 
F32 "PH4" B L 8250 3425 50 
F33 "PJ13" B L 8250 4150 50 
F34 "PJ12" B L 8250 4075 50 
F35 "PA6" B L 8250 900 50 
F36 "PE6" B L 8250 2925 50 
F37 "PE5" B L 8250 2850 50 
F38 "PG6" B L 8250 3050 50 
F39 "PA8" B L 8250 975 50 
F40 "PA9" B L 8250 1050 50 
F41 "PJ3" B L 8250 4000 50 
F42 "PJ2" B L 8250 3925 50 
F43 "PJ1" B L 8250 3850 50 
F44 "PH3" B L 8250 3350 50 
F45 "PI15" B L 8250 3725 50 
F46 "PK7" B L 8250 4500 50 
F47 "PI13" B L 8250 3650 50 
F48 "PI12" B L 8250 3575 50 
F49 "PA15" B L 8250 1425 50 
F50 "DSI_CKN" B L 8250 5125 50 
F51 "DSI_CKP" B L 8250 5025 50 
F52 "DSI_D1N" B L 8250 4925 50 
F53 "DSI_D1P" B L 8250 4825 50 
F54 "DSI_D0N" B L 8250 4725 50 
F55 "DSI_D0P" B L 8250 4625 50 
F56 "PB8" B L 8250 1800 50 
F57 "PG9" B L 8250 3125 50 
F58 "PB4" B L 8250 1650 50 
F59 "~BAT_STAT_CHARG" I L 8250 5650 50 
$EndSheet
$Sheet
S 1350 5180 1805 570 
U 5F511D62
F0 "eeprom" 118
F1 "eeprom.sch" 50
$EndSheet
$Sheet
S 4550 6150 1950 755 
U 5C204039
F0 "power" 118
F1 "power.sch" 50
$EndSheet
$Sheet
S 1350 2100 1800 715 
U 5C07B8C8
F0 "usb" 118
F1 "usb.sch" 50
F2 "PB14_USB_DM" B R 3150 2250 50 
F3 "PB15_USB_DP" B R 3150 2400 50 
F4 "USB_VBUS" O R 3150 2700 50 
F5 "PB12_USB_ID" B R 3150 2550 50 
$EndSheet
$EndSCHEMATC
