EESchema Schematic File Version 5
EELAYER 30 0
EELAYER END
$Descr A4 11693 8268
encoding utf-8
Sheet 7 10
Title "izirunf7"
Date "2020-08-31"
Rev "A"
Comp "IZITRON"
Comment1 "www.izitron.com"
Comment2 ""
Comment3 ""
Comment4 ""
Comment5 ""
Comment6 ""
Comment7 ""
Comment8 ""
Comment9 ""
$EndDescr
Text Notes 6075 885  2    118  Italic 24
POWER
$Comp
L power:GND #PWR07
U 1 1 5ECE1140
P 2975 3650
F 0 "#PWR07" H 2975 3400 59  0001 L CIB
F 1 "GND" H 2975 3505 39  0000 L CIB
F 2 "" H 2975 3650 39  0001 L TIB
F 3 "" H 2975 3650 39  0001 L TIB
	1    2975 3650
	1    0    0    -1  
$EndComp
$Comp
L power:GND #PWR?
U 1 1 5CC01C27
P 4675 3210
AR Path="/5CC01C27" Ref="#PWR?"  Part="1" 
AR Path="/5C8F350B/5CC01C27" Ref="#PWR?"  Part="1" 
AR Path="/5C90C3D3/5CC01C27" Ref="#PWR?"  Part="1" 
AR Path="/5EB5BEF3/5CC01C27" Ref="#PWR?"  Part="1" 
AR Path="/5F047122/5CC01C27" Ref="#PWR010"  Part="1" 
AR Path="/5C204039/5CC01C27" Ref="#PWR010"  Part="1" 
F 0 "#PWR010" H 4675 2960 59  0001 L CIB
F 1 "GND" V 4675 2970 39  0000 L CIB
F 2 "" H 4675 3210 39  0001 L TIB
F 3 "" H 4675 3210 39  0001 L TIB
	1    4675 3210
	0    -1   1    0   
$EndComp
$Comp
L power:+5V #PWR04
U 1 1 5F050ACE
P 1845 2965
F 0 "#PWR04" H 1845 2815 59  0001 L CIB
F 1 "+5V" H 1860 3138 39  0000 L CIB
F 2 "" H 1845 2965 39  0001 L TIB
F 3 "" H 1845 2965 39  0001 L TIB
	1    1845 2965
	1    0    0    -1  
$EndComp
$Comp
L power:GND #PWR09
U 1 1 5ECB8F51
P 3565 3650
F 0 "#PWR09" H 3565 3400 59  0001 L CIB
F 1 "GND" H 3570 3505 39  0000 L CIB
F 2 "" H 3565 3650 39  0001 L TIB
F 3 "" H 3565 3650 39  0001 L TIB
	1    3565 3650
	1    0    0    -1  
$EndComp
$Comp
L device:LED_Small D?
U 1 1 5CC01C20
P 4525 3210
AR Path="/5C8F350B/5CC01C20" Ref="D?"  Part="1" 
AR Path="/5C90C3D3/5CC01C20" Ref="D?"  Part="1" 
AR Path="/5EB5BEF3/5CC01C20" Ref="D?"  Part="1" 
AR Path="/5F047122/5CC01C20" Ref="D1"  Part="1" 
AR Path="/5C204039/5CC01C20" Ref="D1"  Part="1" 
F 0 "D1" H 4465 3350 59  0000 L CIB
F 1 "GREEN 2mA" H 4350 3115 39  0000 L CIB
F 2 "LED_SMD:LED_0805_2012Metric" V 4525 3210 39  0001 L TIB
F 3 "~" V 4525 3210 39  0001 L TIB
F 4 "2217981" H 4525 3210 39  0001 L TIB "FARNELL"
F 5 "KPT-2012ZGC" H 4310 3060 39  0000 L TIB "FAB REF"
F 6 "C598372" H 4525 3210 39  0001 L TIB "LCSC"
	1    4525 3210
	-1   0    0    1   
$EndComp
$Comp
L regul:LM3480-3.3 U4
U 1 1 5ECB303A
P 2975 3210
F 0 "U4" H 2975 3500 59  0000 L CIB
F 1 "MCP1812BT-033/TT " H 2700 3350 39  0000 L CIB
F 2 "TO_SOT_Packages_SMD:SOT-23" H 2975 3435 39  0001 L TIB
F 3 "http://www.ti.com/lit/ds/symlink/lm3480.pdf" H 2975 3210 39  0001 L TIB
F 4 "MCP1812BT-033/TT " H 2975 3210 39  0001 L TIB "MOUSER"
F 5 "MCP1812BT-033/TT" H 2975 3545 39  0001 L TIB "FAB REF"
	1    2975 3210
	1    0    0    -1  
$EndComp
$Comp
L device:C_Small C3
U 1 1 5ECD3D2D
P 3565 3390
F 0 "C3" H 3675 3470 59  0000 L CIB
F 1 "10uF" H 3665 3315 39  0000 L CIB
F 2 "Capacitor_SMD:C_0603_1608Metric" H 3565 3390 39  0001 L TIB
F 3 "~" H 3565 3390 39  0001 L TIB
F 4 "https://fr.farnell.com/murata/grm21br61c106ke15k/condensateur-10-f-16v-10-x5r-0805/dp/2611940" H -4360 -160 39  0001 L TIB "Distributor"
F 5 "GRM21BR61C106KE15K" H -4360 -160 39  0001 L TIB "Manufacture Ref"
	1    3565 3390
	1    0    0    -1  
$EndComp
$Comp
L device:C_Small C2
U 1 1 5F06B7CB
P 2265 3390
F 0 "C2" H 2375 3470 59  0000 L CIB
F 1 "10uF" H 2360 3315 39  0000 L CIB
F 2 "Capacitor_SMD:C_0603_1608Metric" H 2265 3390 39  0001 L TIB
F 3 "~" H 2265 3390 39  0001 L TIB
F 4 "https://fr.farnell.com/murata/grm21br61c106ke15k/condensateur-10-f-16v-10-x5r-0805/dp/2611940" H -5660 -160 39  0001 L TIB "Distributor"
F 5 "GRM21BR61C106KE15K" H -5660 -160 39  0001 L TIB "Manufacture Ref"
	1    2265 3390
	1    0    0    -1  
$EndComp
$Comp
L power:GND #PWR06
U 1 1 5EF7E054
P 2265 3650
F 0 "#PWR06" H 2265 3400 59  0001 L CIB
F 1 "GND" H 2270 3505 39  0000 L CIB
F 2 "" H 2265 3650 39  0001 L TIB
F 3 "" H 2265 3650 39  0001 L TIB
	1    2265 3650
	1    0    0    -1  
$EndComp
$Comp
L power:+3V3 #PWR08
U 1 1 5EC774DF
P 3565 2970
F 0 "#PWR08" H 3565 2820 59  0001 L CIB
F 1 "+3V3" H 3580 3143 39  0000 L CIB
F 2 "" H 3565 2970 39  0001 L TIB
F 3 "" H 3565 2970 39  0001 L TIB
	1    3565 2970
	1    0    0    -1  
$EndComp
$Comp
L power:GND #PWR05
U 1 1 5ECF6773
P 1845 3650
F 0 "#PWR05" H 1845 3400 59  0001 L CIB
F 1 "GND" H 1850 3505 39  0000 L CIB
F 2 "" H 1845 3650 39  0001 L TIB
F 3 "" H 1845 3650 39  0001 L TIB
	1    1845 3650
	1    0    0    -1  
$EndComp
$Comp
L device:R_Small R?
U 1 1 5CC01C19
P 4230 3210
AR Path="/5CC01C19" Ref="R?"  Part="1" 
AR Path="/5C8F350B/5CC01C19" Ref="R?"  Part="1" 
AR Path="/5C90C3D3/5CC01C19" Ref="R?"  Part="1" 
AR Path="/5EB5BEF3/5CC01C19" Ref="R?"  Part="1" 
AR Path="/5F047122/5CC01C19" Ref="R1"  Part="1" 
AR Path="/5C204039/5CC01C19" Ref="R1"  Part="1" 
F 0 "R1" V 4330 3150 59  0000 L CIB
F 1 "750" V 4230 3150 39  0000 L CIB
F 2 "Resistor_SMD:R_0603_1608Metric" H 4230 3210 39  0001 L TIB
F 3 "~" H 4230 3210 39  0001 L TIB
	1    4230 3210
	0    -1   1    0   
$EndComp
Connection ~ 2265 3210
Connection ~ 3565 3210
Connection ~ 1845 3210
Wire Wire Line
	3275 3210 3565 3210
Wire Wire Line
	1845 2965 1845 3210
Wire Wire Line
	2265 3290 2265 3210
Wire Wire Line
	1845 3490 1845 3650
Wire Wire Line
	2265 3210 1845 3210
Wire Wire Line
	3565 3210 4130 3210
Wire Wire Line
	3565 3490 3565 3650
Wire Wire Line
	3565 3210 3565 3290
Wire Wire Line
	2975 3510 2975 3650
Wire Wire Line
	4625 3210 4675 3210
Wire Wire Line
	4330 3210 4425 3210
Wire Wire Line
	2675 3210 2265 3210
Wire Wire Line
	3565 2970 3565 3210
Wire Wire Line
	1845 3210 1845 3290
Wire Wire Line
	2265 3650 2265 3490
$Comp
L power:PWR_FLAG #FLG?
U 1 1 5F21C709
P 1480 1515
AR Path="/5F047122/5EFE5807" Ref="#FLG?"  Part="1" 
AR Path="/5F047122/5F21C709" Ref="#FLG03"  Part="1" 
AR Path="/5C204039/5F21C709" Ref="#FLG03"  Part="1" 
F 0 "#FLG03" H 1480 1590 59  0001 L CIB
F 1 "PWR_FLAG" V 1485 1780 39  0000 L CIB
F 2 "" H 1480 1515 39  0001 L TIB
F 3 "~" H 1480 1515 39  0001 L TIB
	1    1480 1515
	0    -1   -1   0   
$EndComp
$Comp
L power:GND #PWR03
U 1 1 5F003546
P 1730 1515
F 0 "#PWR03" H 1730 1265 59  0001 L CIB
F 1 "GND" V 1730 1250 39  0000 L CIB
F 2 "" H 1730 1515 39  0001 L TIB
F 3 "" H 1730 1515 39  0001 L TIB
	1    1730 1515
	0    -1   -1   0   
$EndComp
$Comp
L power:+3V3 #PWR02
U 1 1 5EFE989E
P 1730 1220
F 0 "#PWR02" H 1730 1070 59  0001 L CIB
F 1 "+3V3" V 1730 1345 39  0000 L CIB
F 2 "" H 1730 1220 39  0001 L TIB
F 3 "" H 1730 1220 39  0001 L TIB
	1    1730 1220
	0    1    1    0   
$EndComp
$Comp
L power:PWR_FLAG #FLG02
U 1 1 5EFE5807
P 1480 1220
F 0 "#FLG02" H 1480 1295 59  0001 L CIB
F 1 "PWR_FLAG" V 1485 1485 39  0000 L CIB
F 2 "" H 1480 1220 39  0001 L TIB
F 3 "~" H 1480 1220 39  0001 L TIB
	1    1480 1220
	0    -1   -1   0   
$EndComp
$Comp
L power:PWR_FLAG #FLG01
U 1 1 5CECAE3E
P 1480 1070
F 0 "#FLG01" H 1480 1145 59  0001 L CIB
F 1 "PWR_FLAG" V 1485 1335 39  0000 L CIB
F 2 "" H 1480 1070 39  0001 L TIB
F 3 "~" H 1480 1070 39  0001 L TIB
	1    1480 1070
	0    -1   -1   0   
$EndComp
$Comp
L power:+5V #PWR01
U 1 1 5EFE35FD
P 1725 1070
F 0 "#PWR01" H 1725 920 59  0001 L CIB
F 1 "+5V" V 1725 1205 39  0000 L CIB
F 2 "" H 1725 1070 39  0001 L TIB
F 3 "" H 1725 1070 39  0001 L TIB
	1    1725 1070
	0    1    1    0   
$EndComp
Wire Wire Line
	1480 1515 1730 1515
Wire Wire Line
	1480 1220 1730 1220
Wire Wire Line
	1480 1070 1725 1070
Text Notes 3305 2520 2    79   Italic 16
LDO 3V3
$Comp
L power:GND #PWR044
U 1 1 5F4EC704
P 8255 3660
F 0 "#PWR044" H 8255 3410 59  0001 L CIB
F 1 "GND" H 8255 3515 39  0000 L CIB
F 2 "" H 8255 3660 39  0001 L TIB
F 3 "" H 8255 3660 39  0001 L TIB
	1    8255 3660
	1    0    0    -1  
$EndComp
$Comp
L power:+5V #PWR024
U 1 1 5F4EC712
P 7125 2975
F 0 "#PWR024" H 7125 2825 59  0001 L CIB
F 1 "+5V" H 7065 3145 39  0000 L CIB
F 2 "" H 7125 2975 39  0001 L TIB
F 3 "" H 7125 2975 39  0001 L TIB
	1    7125 2975
	1    0    0    -1  
$EndComp
Connection ~ 8845 3220
Connection ~ 7545 3220
Connection ~ 7125 3220
$Comp
L device:C_Small C4
U 1 1 5F4EC731
P 7125 3400
F 0 "C4" H 7235 3480 59  0000 L CIB
F 1 "10uF" H 7220 3325 39  0000 L CIB
F 2 "Capacitor_SMD:C_0603_1608Metric" H 7125 3400 39  0001 L TIB
F 3 "~" H 7125 3400 39  0001 L TIB
F 4 "https://fr.farnell.com/murata/grm21br61c106ke15k/condensateur-10-f-16v-10-x5r-0805/dp/2611940" H -800 -150 39  0001 L TIB "Distributor"
F 5 "GRM21BR61C106KE15K" H -800 -150 39  0001 L TIB "Manufacture Ref"
	1    7125 3400
	1    0    0    -1  
$EndComp
$Comp
L device:C_Small C8
U 1 1 5F4EC744
P 8845 3400
F 0 "C8" H 8955 3480 59  0000 L CIB
F 1 "10uF" H 8945 3325 39  0000 L CIB
F 2 "Capacitor_SMD:C_0603_1608Metric" H 8845 3400 39  0001 L TIB
F 3 "~" H 8845 3400 39  0001 L TIB
F 4 "https://fr.farnell.com/murata/grm21br61c106ke15k/condensateur-10-f-16v-10-x5r-0805/dp/2611940" H 920 -150 39  0001 L TIB "Distributor"
F 5 "GRM21BR61C106KE15K" H 920 -150 39  0001 L TIB "Manufacture Ref"
	1    8845 3400
	1    0    0    -1  
$EndComp
$Comp
L power:GND #PWR042
U 1 1 5F4EC757
P 7125 3660
F 0 "#PWR042" H 7125 3410 59  0001 L CIB
F 1 "GND" H 7130 3515 39  0000 L CIB
F 2 "" H 7125 3660 39  0001 L TIB
F 3 "" H 7125 3660 39  0001 L TIB
	1    7125 3660
	1    0    0    -1  
$EndComp
$Comp
L power:GND #PWR043
U 1 1 5F4EC765
P 7545 3660
F 0 "#PWR043" H 7545 3410 59  0001 L CIB
F 1 "GND" H 7550 3515 39  0000 L CIB
F 2 "" H 7545 3660 39  0001 L TIB
F 3 "" H 7545 3660 39  0001 L TIB
	1    7545 3660
	1    0    0    -1  
$EndComp
$Comp
L power:GND #PWR046
U 1 1 5F4EC773
P 8845 3660
F 0 "#PWR046" H 8845 3410 59  0001 L CIB
F 1 "GND" H 8850 3515 39  0000 L CIB
F 2 "" H 8845 3660 39  0001 L TIB
F 3 "" H 8845 3660 39  0001 L TIB
	1    8845 3660
	1    0    0    -1  
$EndComp
$Comp
L regul:LM3480-3.3 U2
U 1 1 5F4EC781
P 8255 3220
F 0 "U2" H 8195 3510 59  0000 L CIB
F 1 "MCP1812BT-033/TT " H 7990 3360 39  0000 L CIB
F 2 "TO_SOT_Packages_SMD:SOT-23" H 8255 3445 39  0001 L TIB
F 3 "http://www.ti.com/lit/ds/symlink/lm3480.pdf" H 8255 3220 39  0001 L TIB
F 4 "MCP1812BT-033/TT " H 8255 3220 39  0001 L TIB "MOUSER"
F 5 "MCP1812BT-033/TT" H 8255 3555 39  0001 L TIB "FAB REF"
	1    8255 3220
	1    0    0    -1  
$EndComp
$Comp
L device:C_Small C6
U 1 1 5F4EC7BD
P 7545 3400
F 0 "C6" H 7655 3480 59  0000 L CIB
F 1 "10uF" H 7640 3325 39  0000 L CIB
F 2 "Capacitor_SMD:C_0603_1608Metric" H 7545 3400 39  0001 L TIB
F 3 "~" H 7545 3400 39  0001 L TIB
F 4 "https://fr.farnell.com/murata/grm21br61c106ke15k/condensateur-10-f-16v-10-x5r-0805/dp/2611940" H -380 -150 39  0001 L TIB "Distributor"
F 5 "GRM21BR61C106KE15K" H -380 -150 39  0001 L TIB "Manufacture Ref"
	1    7545 3400
	1    0    0    -1  
$EndComp
Wire Wire Line
	7125 3220 7125 3300
Wire Wire Line
	7955 3220 7545 3220
Wire Wire Line
	7545 3300 7545 3220
Wire Wire Line
	8255 3520 8255 3660
Wire Wire Line
	8845 3500 8845 3660
Wire Wire Line
	8555 3220 8845 3220
Wire Wire Line
	8845 2980 8845 3220
Wire Wire Line
	7125 3500 7125 3660
Wire Wire Line
	7545 3660 7545 3500
Wire Wire Line
	7125 2975 7125 3220
Wire Wire Line
	7545 3220 7125 3220
Wire Wire Line
	8845 3220 8845 3300
Text Notes 8505 2520 2    79   Italic 16
LDO 1V8
$Comp
L power:PWR_FLAG #FLG04
U 1 1 5F4F5F3A
P 1480 1365
F 0 "#FLG04" H 1480 1440 59  0001 L CIB
F 1 "PWR_FLAG" V 1485 1630 39  0000 L CIB
F 2 "" H 1480 1365 39  0001 L TIB
F 3 "~" H 1480 1365 39  0001 L TIB
	1    1480 1365
	0    -1   -1   0   
$EndComp
Wire Wire Line
	1480 1365 1730 1365
$Comp
L power:+1V8 #PWR020
U 1 1 5F532D2C
P 1730 1365
F 0 "#PWR020" H 1730 1215 59  0001 L CIB
F 1 "+1V8" V 1730 1490 39  0000 L CIB
F 2 "" H 1730 1365 39  0001 L TIB
F 3 "" H 1730 1365 39  0001 L TIB
	1    1730 1365
	0    1    1    0   
$EndComp
$Comp
L power:+1V8 #PWR045
U 1 1 5F4F8C40
P 8845 2980
F 0 "#PWR045" H 8845 2830 59  0001 L CIB
F 1 "+1V8" H 8765 3160 39  0000 L CIB
F 2 "" H 8845 2980 39  0001 L TIB
F 3 "" H 8845 2980 39  0001 L TIB
	1    8845 2980
	1    0    0    -1  
$EndComp
$Comp
L device:C_Small C1
U 1 1 5ECFF147
P 1845 3390
F 0 "C1" H 1955 3470 59  0000 L CIB
F 1 "10uF" H 1940 3315 39  0000 L CIB
F 2 "Capacitor_SMD:C_0603_1608Metric" H 1845 3390 39  0001 L TIB
F 3 "~" H 1845 3390 39  0001 L TIB
F 4 "https://fr.farnell.com/murata/grm21br61c106ke15k/condensateur-10-f-16v-10-x5r-0805/dp/2611940" H -6080 -160 39  0001 L TIB "Distributor"
F 5 "GRM21BR61C106KE15K" H -6080 -160 39  0001 L TIB "Manufacture Ref"
	1    1845 3390
	1    0    0    -1  
$EndComp
$EndSCHEMATC
