EESchema Schematic File Version 5
EELAYER 30 0
EELAYER END
$Descr A4 11693 8268
encoding utf-8
Sheet 4 10
Title "izirunf7"
Date "2020-08-31"
Rev "A"
Comp "IZITRON"
Comment1 "www.izitron.com"
Comment2 ""
Comment3 ""
Comment4 ""
Comment5 ""
Comment6 ""
Comment7 ""
Comment8 ""
Comment9 ""
$EndDescr
$Comp
L izi-mcu:STM32F769NIH6 U3
U 4 1 5D524973
P 8450 3550
F 0 "U3" H 8360 4030 59  0000 L CIB
F 1 "STM32F769NIH6" H 8215 3915 39  0000 L CIB
F 2 "Package_BGA:TFBGA-216_13x13mm_Layout15x15_P0.8mm" H 10700 2000 39  0001 L TIB
F 3 "" H 10700 2000 39  0000 L TIB
F 4 "STM32F769NIH6" H 8215 3870 39  0000 L TIB "Manufacture Ref"
F 5 "https://www.mouser.fr/ProductDetail/STMicroelectronics/STM32F769NIH6?qs=dTJS0cRn7ogA2J674TGvTQ==" H 8500 6400 39  0001 L TIB "Distributor"
	4    8450 3550
	1    0    0    -1  
$EndComp
$Comp
L power:+3V3 #PWR010
U 1 1 5D53E71C
P 2400 2900
F 0 "#PWR010" H 2400 2750 59  0001 L CIB
F 1 "+3V3" H 2320 3055 39  0000 L CIB
F 2 "" H 2400 2900 39  0001 L TIB
F 3 "" H 2400 2900 39  0001 L TIB
	1    2400 2900
	1    0    0    -1  
$EndComp
$Comp
L device:R_Small R2
U 1 1 5D53E7D2
P 2400 3150
F 0 "R2" H 2455 3155 59  0000 L CIB
F 1 "100k" V 2325 3075 39  0000 L CIB
F 2 "Resistor_SMD:R_0402_1005Metric" H 2400 3150 39  0001 L TIB
F 3 "~" H 2400 3150 39  0001 L TIB
	1    2400 3150
	1    0    0    -1  
$EndComp
Wire Wire Line
	2400 2900 2400 3050
Wire Wire Line
	2400 3350 2400 3250
$Comp
L power:+3V3 #PWR011
U 1 1 5D53FFE2
P 4950 2900
F 0 "#PWR011" H 4950 2750 59  0001 L CIB
F 1 "+3V3" H 4870 3060 39  0000 L CIB
F 2 "" H 4950 2900 39  0001 L TIB
F 3 "" H 4950 2900 39  0001 L TIB
	1    4950 2900
	1    0    0    -1  
$EndComp
$Comp
L device:R_Small R3
U 1 1 5D540032
P 4500 3150
F 0 "R3" H 4365 3275 59  0000 L CIB
F 1 "100k" V 4425 3050 39  0000 L CIB
F 2 "Resistor_SMD:R_0402_1005Metric" H 4500 3150 39  0001 L TIB
F 3 "~" H 4500 3150 39  0001 L TIB
	1    4500 3150
	1    0    0    -1  
$EndComp
$Comp
L device:R_Small R4
U 1 1 5D54006E
P 4725 3150
F 0 "R4" H 4590 3275 59  0000 L CIB
F 1 "100k" V 4650 3050 39  0000 L CIB
F 2 "Resistor_SMD:R_0402_1005Metric" H 4725 3150 39  0001 L TIB
F 3 "~" H 4725 3150 39  0001 L TIB
	1    4725 3150
	1    0    0    -1  
$EndComp
Wire Wire Line
	4250 3300 4500 3300
Wire Wire Line
	4500 3300 4500 3250
Wire Wire Line
	4250 3400 4725 3400
Wire Wire Line
	4725 3400 4725 3250
$Comp
L device:R_Small R5
U 1 1 5D5405DE
P 4950 3150
F 0 "R5" H 4935 3275 59  0000 R CIB
F 1 "100k" V 4875 3050 39  0000 L CIB
F 2 "Resistor_SMD:R_0402_1005Metric" H 4950 3150 39  0001 L TIB
F 3 "~" H 4950 3150 39  0001 L TIB
	1    4950 3150
	1    0    0    -1  
$EndComp
$Comp
L device:R_Small R6
U 1 1 5D540610
P 5175 3150
F 0 "R6" H 5040 3275 59  0000 L CIB
F 1 "100k" V 5100 3050 39  0000 L CIB
F 2 "Resistor_SMD:R_0402_1005Metric" H 5175 3150 39  0001 L TIB
F 3 "~" H 5175 3150 39  0001 L TIB
	1    5175 3150
	1    0    0    -1  
$EndComp
$Comp
L device:R_Small R8
U 1 1 5D54064D
P 5675 3600
F 0 "R8" V 5590 3550 59  0000 L CIB
F 1 "22R" V 5675 3550 39  0000 L CIB
F 2 "Resistor_SMD:R_0402_1005Metric" H 5675 3600 39  0001 L TIB
F 3 "~" H 5675 3600 39  0001 L TIB
	1    5675 3600
	0    1    1    0   
$EndComp
Wire Wire Line
	4250 3800 4950 3800
Wire Wire Line
	4950 3800 4950 3250
Wire Wire Line
	4250 3900 5175 3900
Wire Wire Line
	5175 3900 5175 3250
$Comp
L device:R_Small R7
U 1 1 5D54092B
P 5400 3150
F 0 "R7" H 5265 3275 59  0000 L CIB
F 1 "100k" V 5325 3050 39  0000 L CIB
F 2 "Resistor_SMD:R_0402_1005Metric" H 5400 3150 39  0001 L TIB
F 3 "~" H 5400 3150 39  0001 L TIB
	1    5400 3150
	1    0    0    -1  
$EndComp
Wire Wire Line
	4250 4000 5400 4000
Wire Wire Line
	5400 4000 5400 3250
Wire Wire Line
	4500 3050 4500 2900
Wire Wire Line
	4500 2900 4725 2900
Wire Wire Line
	4950 2900 5175 2900
Wire Wire Line
	5400 2900 5400 3050
Connection ~ 4950 2900
Wire Wire Line
	5175 3050 5175 2900
Connection ~ 5175 2900
Wire Wire Line
	5175 2900 5400 2900
Wire Wire Line
	4950 3050 4950 2900
Wire Wire Line
	4725 3050 4725 2900
Connection ~ 4725 2900
Wire Wire Line
	4725 2900 4950 2900
$Comp
L device:C_Small C30
U 1 1 5D54196C
P 5600 2900
F 0 "C30" V 5465 2810 59  0000 L CIB
F 1 "100nF" V 5710 2805 39  0000 L CIB
F 2 "Capacitors_SMD:C_0402" H 5600 2900 39  0001 L TIB
F 3 "~" H 5600 2900 39  0001 L TIB
F 4 "MC0402B104K160CT" H 1325 0   39  0001 L TIB "Manufacture Ref"
F 5 "https://fr.farnell.com/multicomp/mc0402b104k160ct/condensateur-0-1-f-16v-10-x7r/dp/1758896" H 1325 0   39  0001 L TIB "Distributor"
	1    5600 2900
	0    -1   1    0   
$EndComp
$Comp
L power:GND #PWR012
U 1 1 5D541AAF
P 5875 2950
F 0 "#PWR012" H 5875 2700 59  0001 L CIB
F 1 "GND" H 5810 2795 39  0000 L CIB
F 2 "" H 5875 2950 39  0001 L TIB
F 3 "" H 5875 2950 39  0001 L TIB
	1    5875 2950
	-1   0    0    -1  
$EndComp
Wire Wire Line
	5875 2950 5875 2900
Wire Wire Line
	5875 2900 5700 2900
Wire Bus Line
	1800 3450 1800 4425
Wire Bus Line
	1800 4425 1850 4475
Wire Bus Line
	6625 2625 10075 2625
Entry Wire Line
	1800 3450 1900 3350
Wire Wire Line
	1900 3350 2400 3350
Connection ~ 2400 3350
Text Label 1925 3350 0    50   ~ 0
SD_DETECT
Entry Wire Line
	6575 3600 6675 3700
Wire Wire Line
	6675 3700 7550 3700
Text Label 6775 3700 0    50   ~ 0
SD_DETECT
Entry Wire Line
	6475 4000 6575 3900
Entry Wire Line
	6475 3900 6575 3800
Entry Wire Line
	6475 3800 6575 3700
Entry Wire Line
	6475 3600 6575 3500
Entry Wire Line
	6475 3400 6575 3300
Entry Wire Line
	6475 3300 6575 3200
Wire Wire Line
	5400 4000 6475 4000
Connection ~ 5400 4000
Wire Wire Line
	5175 3900 6475 3900
Connection ~ 5175 3900
Wire Wire Line
	4950 3800 6475 3800
Connection ~ 4950 3800
Wire Wire Line
	5775 3600 6475 3600
Wire Wire Line
	4725 3400 6475 3400
Connection ~ 4725 3400
Wire Wire Line
	4500 3300 6475 3300
Connection ~ 4500 3300
Entry Wire Line
	6575 3300 6675 3400
Entry Wire Line
	6575 3450 6675 3550
Wire Wire Line
	6675 3400 7550 3400
Wire Wire Line
	6675 3550 7550 3550
Text Label 6775 3400 0    50   ~ 0
SD_CLK
Text Label 6775 3550 0    50   ~ 0
SD_CMD
Text Label 6100 3600 0    50   ~ 0
SD_CLK
Text Label 6100 3800 0    50   ~ 0
SD_CMD
Entry Wire Line
	10025 3400 10125 3300
Entry Wire Line
	10025 3500 10125 3400
Entry Wire Line
	10025 3600 10125 3500
Entry Wire Line
	10025 3700 10125 3600
Wire Wire Line
	9350 3400 10025 3400
Wire Wire Line
	9350 3500 10025 3500
Wire Wire Line
	9350 3600 10025 3600
Wire Wire Line
	9350 3700 10025 3700
Wire Bus Line
	10075 2625 10125 2675
Wire Bus Line
	6625 2625 6575 2675
Wire Bus Line
	6575 4425 6525 4475
Wire Bus Line
	1850 4475 6525 4475
Text Label 9475 3400 0    50   ~ 0
SD_D0
Text Label 9475 3500 0    50   ~ 0
SD_D1
Text Label 9475 3600 0    50   ~ 0
SD_D2
Text Label 9475 3700 0    50   ~ 0
SD_D3
Text Label 6100 3400 0    50   ~ 0
SD_D0
Text Label 6100 3300 0    50   ~ 0
SD_D1
Text Label 6100 4000 0    50   ~ 0
SD_D2
Text Label 6100 3900 0    50   ~ 0
SD_D3
Text Notes 6420 830  2    118  Italic 24
MicroSD
Wire Wire Line
	4250 3700 4325 3700
$Comp
L power:+3V3 #PWR014
U 1 1 5D5413B5
P 4325 3700
F 0 "#PWR014" H 4325 3550 59  0001 L CIB
F 1 "+3V3" V 4340 3828 39  0000 L CIB
F 2 "" H 4325 3700 39  0001 L TIB
F 3 "" H 4325 3700 39  0001 L TIB
	1    4325 3700
	0    1    1    0   
$EndComp
Wire Wire Line
	4250 3500 4350 3500
$Comp
L power:GND #PWR013
U 1 1 5D53EDA3
P 4350 3500
F 0 "#PWR013" H 4350 3250 59  0001 L CIB
F 1 "GND" V 4350 3255 39  0000 L CIB
F 2 "" H 4350 3500 39  0001 L TIB
F 3 "" H 4350 3500 39  0001 L TIB
	1    4350 3500
	0    -1   -1   0   
$EndComp
Wire Wire Line
	4250 3600 5575 3600
$Comp
L power:GND #PWR015
U 1 1 5D53E508
P 2450 4125
F 0 "#PWR015" H 2450 3875 59  0001 L CIB
F 1 "GND" H 2385 3955 39  0000 L CIB
F 2 "" H 2450 4125 39  0001 L TIB
F 3 "" H 2450 4125 39  0001 L TIB
	1    2450 4125
	1    0    0    -1  
$EndComp
Wire Wire Line
	2450 3600 2450 3900
$Comp
L izi-connectors:microSD_Card_Molex_v1 SD1
U 1 1 5D70A1EF
P 3800 3600
F 0 "SD1" H 4150 4125 59  0000 L CIB
F 1 "microSD_Card_Molex_v1" H 3910 4010 39  0000 L CIB
F 2 "MyFootPrint:microSD-473093351" H 4000 3950 39  0001 L TIB
F 3 "http://portal.fciconnect.com/Comergent//fci/drawing/10067847.pdf" H 4115 4033 39  0001 L TIB
	1    3800 3600
	-1   0    0    -1  
$EndComp
Wire Wire Line
	2400 3350 2700 3350
Wire Wire Line
	2450 3600 2700 3600
Wire Wire Line
	2700 3900 2450 3900
Connection ~ 2450 3900
Wire Wire Line
	2450 3900 2450 4050
Wire Wire Line
	2700 4050 2450 4050
Connection ~ 2450 4050
Wire Wire Line
	2450 4050 2450 4125
Wire Wire Line
	5400 2900 5500 2900
Connection ~ 5400 2900
Wire Bus Line
	10125 2675 10125 3600
Wire Bus Line
	6575 2675 6575 4425
$EndSCHEMATC
