EESchema Schematic File Version 5
EELAYER 30 0
EELAYER END
$Descr A4 11693 8268
encoding utf-8
Sheet 6 10
Title "izirunf7"
Date "2020-08-31"
Rev "A"
Comp "IZITRON"
Comment1 "www.izitron.com"
Comment2 ""
Comment3 ""
Comment4 ""
Comment5 ""
Comment6 ""
Comment7 ""
Comment8 ""
Comment9 ""
$EndDescr
$Comp
L izi-mcu:STM32F769NIH6 U3
U 6 1 5C07B8F3
P 5865 2555
F 0 "U3" H 5795 3250 59  0000 L CIB
F 1 "STM32F769NIH6" H 5635 3135 39  0000 L CIB
F 2 "Package_BGA:TFBGA-216_13x13mm_Layout15x15_P0.8mm" H 8115 1005 39  0001 L TIB
F 3 "" H 8115 1005 39  0000 L TIB
F 4 "STM32F769NIH6" H 5635 3070 39  0000 L TIB "Manufacture Ref"
F 5 "https://www.mouser.fr/ProductDetail/STMicroelectronics/STM32F769NIH6?qs=dTJS0cRn7ogA2J674TGvTQ==" H 5915 5405 39  0001 L TIB "Distributor"
	6    5865 2555
	1    0    0    -1  
$EndComp
$Comp
L izi-loadswitch:STMPS21xx U6
U 1 1 5C0C6BA9
P 5570 4915
F 0 "U6" H 5510 5270 59  0000 L CIB
F 1 "STMPS21xx" H 5405 5165 39  0000 L CIB
F 2 "Package_TO_SOT_SMD:TSOT-23-5" H 5570 4915 39  0001 L TIB
F 3 "" H 5570 4915 39  0001 L TIB
	1    5570 4915
	1    0    0    -1  
$EndComp
Wire Wire Line
	4935 4915 5170 4915
$Comp
L device:C_Small C?
U 1 1 5C0CAC83
P 3920 4915
AR Path="/5C061F84/5C0CAC83" Ref="C?"  Part="1" 
AR Path="/5C07B8C8/5C0CAC83" Ref="C40"  Part="1" 
F 0 "C40" H 3945 4990 59  0000 L CIB
F 1 "1uF" H 3945 4840 39  0000 L CIB
F 2 "Capacitors_SMD:C_0603" H 3920 4915 39  0001 L TIB
F 3 "~" H 3920 4915 39  0001 L TIB
F 4 "https://fr.farnell.com/avx/0603yd105kat2a/condensateur-1-f-16v-10-x5r-0603/dp/1327680" H 1745 3340 39  0001 L TIB "Distributor"
F 5 "603YD105KAT2A" H 1745 3340 39  0001 L TIB "Manufacture Ref"
	1    3920 4915
	1    0    0    -1  
$EndComp
$Comp
L power:+5V #PWR029
U 1 1 5C0CAF43
P 3920 4565
F 0 "#PWR029" H 3920 4415 59  0001 L CIB
F 1 "+5V" H 3855 4740 39  0000 L CIB
F 2 "" H 3920 4565 39  0001 L TIB
F 3 "" H 3920 4565 39  0001 L TIB
	1    3920 4565
	1    0    0    -1  
$EndComp
Wire Wire Line
	3920 4565 3920 4765
Wire Wire Line
	5170 4765 3920 4765
Connection ~ 3920 4765
Wire Wire Line
	3920 4765 3920 4815
$Comp
L power:GND #PWR?
U 1 1 5C0CEA3A
P 3920 5190
AR Path="/5C061F84/5C0CEA3A" Ref="#PWR?"  Part="1" 
AR Path="/5C07B8C8/5C0CEA3A" Ref="#PWR030"  Part="1" 
F 0 "#PWR030" H 3920 4940 59  0001 L CIB
F 1 "GND" H 3860 5035 39  0000 L CIB
F 2 "" H 3920 5190 39  0001 L TIB
F 3 "" H 3920 5190 39  0001 L TIB
	1    3920 5190
	1    0    0    -1  
$EndComp
Wire Wire Line
	3920 5015 3920 5065
Wire Wire Line
	5170 5065 3920 5065
Connection ~ 3920 5065
Wire Wire Line
	3920 5065 3920 5190
$Comp
L device:R_Small R25
U 1 1 5C0D81DA
P 6870 5015
F 0 "R25" V 6780 4930 59  0000 L CIB
F 1 "750" V 6875 4960 39  0000 L CIB
F 2 "Resistor_SMD:R_0402_1005Metric" H 6870 5015 39  0001 L TIB
F 3 "~" H 6870 5015 39  0001 L TIB
	1    6870 5015
	0    1    1    0   
$EndComp
Wire Wire Line
	5970 4815 6180 4815
Wire Wire Line
	6770 5015 6645 5015
Connection ~ 7725 4815
$Comp
L device:R_Small R26
U 1 1 5C11C238
P 8100 4815
F 0 "R26" V 8185 4720 59  0000 L CIB
F 1 "750" V 8095 4755 39  0000 L CIB
F 2 "Resistor_SMD:R_0402_1005Metric" H 8100 4815 39  0001 L TIB
F 3 "~" H 8100 4815 39  0001 L TIB
	1    8100 4815
	0    -1   -1   0   
$EndComp
Wire Wire Line
	8200 4815 8485 4815
$Comp
L power:GND #PWR?
U 1 1 5C121117
P 8900 4815
AR Path="/5C061F84/5C121117" Ref="#PWR?"  Part="1" 
AR Path="/5C07B8C8/5C121117" Ref="#PWR032"  Part="1" 
F 0 "#PWR032" H 8900 4565 59  0001 L CIB
F 1 "GND" V 8900 4560 39  0000 L CIB
F 2 "" H 8900 4815 39  0001 L TIB
F 3 "" H 8900 4815 39  0001 L TIB
	1    8900 4815
	0    -1   -1   0   
$EndComp
Text Notes 6095 770  2    118  Italic 24
USB
Wire Wire Line
	8685 4815 8900 4815
Wire Wire Line
	7725 4815 8000 4815
$Comp
L power:+3V3 #PWR028
U 1 1 5C0D7FB8
P 7105 5015
F 0 "#PWR028" H 7105 4865 59  0001 L CIB
F 1 "+3V3" V 7105 5130 39  0000 L CIB
F 2 "" H 7105 5015 39  0001 L TIB
F 3 "" H 7105 5015 39  0001 L TIB
	1    7105 5015
	0    1    1    0   
$EndComp
Wire Wire Line
	7105 5015 6970 5015
Text HLabel 4635 2505 0    50   BiDi ~ 0
PB14_USB_DM
Wire Wire Line
	4635 2505 4965 2505
Text HLabel 4635 2655 0    50   BiDi ~ 0
PB15_USB_DP
Wire Wire Line
	4965 2655 4635 2655
$Comp
L power:GND #PWR?
U 1 1 5C10718E
P 7725 5340
AR Path="/5C061F84/5C10718E" Ref="#PWR?"  Part="1" 
AR Path="/5C07B8C8/5C10718E" Ref="#PWR031"  Part="1" 
F 0 "#PWR031" H 7725 5090 59  0001 L CIB
F 1 "GND" H 7660 5180 39  0000 L CIB
F 2 "" H 7725 5340 39  0001 L TIB
F 3 "" H 7725 5340 39  0001 L TIB
	1    7725 5340
	1    0    0    -1  
$EndComp
$Comp
L device:C_Small C?
U 1 1 5C0E4544
P 7725 5140
AR Path="/5C061F84/5C0E4544" Ref="C?"  Part="1" 
AR Path="/5C07B8C8/5C0E4544" Ref="C41"  Part="1" 
F 0 "C41" H 7750 5215 59  0000 L CIB
F 1 "4.7uF" H 7750 5065 39  0000 L CIB
F 2 "Capacitors_SMD:C_0603" H 7725 5140 39  0001 L TIB
F 3 "~" H 7725 5140 39  0001 L TIB
F 4 "https://fr.farnell.com/murata/grm188r61c475kaajd/condensateur-4-7-f-16v-10-x5r/dp/2611924" H 2250 3340 39  0001 L TIB "Distributor"
F 5 "GRM188R61C475KAAJD" H 2250 3340 39  0001 L TIB "Manufacture Ref"
	1    7725 5140
	1    0    0    -1  
$EndComp
Wire Wire Line
	7725 5240 7725 5340
Wire Wire Line
	7725 5040 7725 4815
Wire Wire Line
	5970 5015 6445 5015
$Comp
L device:LED_Small D?
U 1 1 5F08EEFF
P 8585 4815
AR Path="/5C8F350B/5F08EEFF" Ref="D?"  Part="1" 
AR Path="/5C90C3D3/5F08EEFF" Ref="D?"  Part="1" 
AR Path="/5EB5BEF3/5F08EEFF" Ref="D2"  Part="1" 
AR Path="/5C07B8C8/5F08EEFF" Ref="D2"  Part="1" 
F 0 "D2" H 8585 4955 59  0000 C CIB
F 1 "GREEN 2mA" H 8585 5060 39  0000 C CIB
F 2 "LED_SMD:LED_0805_2012Metric" V 8585 4815 39  0001 C CIB
F 3 "~" V 8585 4815 39  0001 C CIB
F 4 "2217981" H 8585 4815 39  0001 C CIB "FARNELL"
F 5 "KPT-2012ZGC" H 8585 5125 39  0000 C CIB "FAB REF"
F 6 "C598372" H 8585 4815 39  0001 C CIB "LCSC"
	1    8585 4815
	-1   0    0    -1  
$EndComp
$Comp
L device:LED_Small D?
U 1 1 5F5B7460
P 6545 5015
AR Path="/5C8F350B/5F5B7460" Ref="D?"  Part="1" 
AR Path="/5C90C3D3/5F5B7460" Ref="D?"  Part="1" 
AR Path="/5EB5BEF3/5F5B7460" Ref="D?"  Part="1" 
AR Path="/5C07B8C8/5F5B7460" Ref="D?"  Part="1" 
F 0 "D?" H 6545 5155 59  0000 C CIB
F 1 "RED 2mA" H 6550 4920 39  0000 C CIB
F 2 "LED_SMD:LED_0805_2012Metric" V 6545 5015 39  0001 C CIB
F 3 "~" V 6545 5015 39  0001 C CIB
F 4 "2217981" H 6545 5015 39  0001 C CIB "FARNELL"
F 5 "KPT-2012ZGC" H 6545 4850 39  0000 C CIB "FAB REF"
F 6 "C598372" H 6545 5015 39  0001 C CIB "LCSC"
	1    6545 5015
	1    0    0    -1  
$EndComp
Wire Wire Line
	6715 2655 6880 2655
Text Label 6880 2655 0    50   ~ 0
EN_VBUS
Text Label 4935 4915 2    50   ~ 0
EN_VBUS
Text HLabel 6325 4650 2    50   Output ~ 0
USB_VBUS
Wire Wire Line
	6325 4650 6180 4650
Wire Wire Line
	6180 4650 6180 4815
Connection ~ 6180 4815
Wire Wire Line
	6180 4815 7725 4815
Text HLabel 6880 2505 2    50   BiDi ~ 0
PB12_USB_ID
Wire Wire Line
	6715 2505 6880 2505
$EndSCHEMATC
